﻿Class 001
 Name "Warrior"
 Notes "<職業ランク 1>\r\n<最大TP増加 10%>\r\n<メモライズ容量補正 30,15,10,20,15>"
Class 002
 Name "Swordsman"
 Notes "<要求経験職 1-10>\r\n<職業ランク 2>\r\n<最大TP増加 20%>\r\n<メモライズ容量補正 40,25,20,30,25>"
Class 003
 Name "Swordmaster"
 Notes "<要求経験職 2-10>\r\n<転職アイテム 622>\r\n<職業ランク 3>\r\n<最大TP増加 30%>\r\n<メモライズ容量補正 70,45,40,55,45>\r\n<武器マスタリー 2-220,3-220,4-220,6-220,9-220>"
Class 004
 Name "Monster Swordsman"
 Notes "<要求経験職 2-10>\r\n<転職アイテム 622>\r\n<職業ランク 3>\r\n<最大TP増加 30%>\r\n<メモライズ容量補正 70,45,40,55,45>"
Class 005
 Name "Temple Knight"
 Notes "<要求経験職 1-10,44-10>\r\n<職業ランク 2>\r\n<最大TP増加 15%>\r\n<メモライズ容量補正 35,30,25,40,30>"
Class 006
 Name "Holy Knight"
 Notes "<要求経験職 5-10>\r\n<転職アイテム 622>\r\n<職業ランク 3>\r\n<最大TP増加 25%>\r\n<メモライズ容量補正 60,55,45,70,55>\r\n<武器マスタリー 5-220,7-220,8-220>"
Class 007
 Name "Spellsword"
 Notes "<要求経験職 1-10,33-10>\r\n<職業ランク 2>\r\n<最大TP増加 5%>\r\n<メモライズ容量補正 35,25,35,20,30>"
Class 008
 Name "Master Swordcerer"
 Notes "<要求経験職 7-10>\r\n<転職アイテム 622>\r\n<職業ランク 3>\r\n<最大TP増加 10%>\r\n<メモライズ容量補正 60,45,60,40,55>\r\n<武器マスタリー 2-220,3-220,4-220,6-220>"
Class 009
 Name "Dragon Knight"
 Notes "<要求経験職 1-10>\r\n<職業ランク 2>\r\n<最大TP増加 20%>\r\n<メモライズ容量補正 35,25,20,30,30>"
Class 010
 Name "Holy Lancer"
 Notes "<要求経験職 9-10>\r\n<転職アイテム 625>\r\n<職業ランク 3>\r\n<最大TP増加 30%>\r\n<メモライズ容量補正 60,45,40,55,55>\r\n<武器マスタリー 5-220,7-220,8-220>"
Class 011
 Name "Dark Dragon Knight"
 Notes "<要求経験職 9-10>\r\n<転職アイテム 625>\r\n<職業ランク 3>\r\n<最大TP増加 30%>\r\n<メモライズ容量補正 60,45,40,55,55>"
Class 012
 Name "Samurai"
 Notes "<要求経験職 1-10>\r\n<転職アイテム 603>\r\n<職業ランク 2>\r\n<最大TP増加 20%>\r\n<メモライズ容量補正 40,30,20,25,25>"
Class 013
 Name "Samurai Saint"
 Notes "<要求経験職 12-10>\r\n<転職アイテム 622>\r\n<職業ランク 3>\r\n<最大TP増加 30%>\r\n<メモライズ容量補正 70,55,40,45,45>\r\n<武器マスタリー 9-220>"
Class 014
 Name "Dark Samurai"
 Notes "<要求経験職 12-10>\r\n<転職アイテム 622>\r\n<職業ランク 3>\r\n<最大TP増加 30%>\r\n<メモライズ容量補正 70,55,40,45,45>"
Class 015
 Name "Power Fighter"
 Notes "<要求経験職 1-10>\r\n<職業ランク 2>\r\n<最大TP増加 20%>\r\n<メモライズ容量補正 40,20,20,40,20>\r\n<踏みとどまり 30%>"
Class 016
 Name "Giga Fighter"
 Notes "<要求経験職 15-10>\r\n<転職アイテム 624>\r\n<職業ランク 3>\r\n<最大TP増加 30%>\r\n<メモライズ容量補正 70,40,40,70,40>\r\n<踏みとどまり 20%>\r\n<武器マスタリー 4-220,13-220,14-220,22-220>"
Class 017
 Name "Savage Warrior"
 Notes "<要求経験職 1-10>\r\n<転職アイテム 604>\r\n<職業ランク 2>\r\n<最大TP増加 20%>\r\n<メモライズ容量補正 40,20,20,30,20>"
Class 018
 Name "Berserker"
 Notes "<要求経験職 17-10>\r\n<転職アイテム 624>\r\n<職業ランク 3>\r\n<最大TP増加 30%>\r\n<メモライズ容量補正 70,40,40,55,40>\r\n<武器マスタリー 4-220,13-220,14-220,22-220>"
Class 019
 Name "Tao Swordsman"
 Notes "<要求経験職 1-10,42-10>\r\n<職業ランク 2>\r\n<最大TP増加 5%>\r\n<メモライズ容量補正 35,30,30,20,35>\r\n<魔法反撃 25%>"
Class 020
 Name "Kuji-In Sword God"
 Notes "<要求経験職 19-10>\r\n<転職アイテム 622>\r\n<職業ランク 3>\r\n<最大TP増加 10%>\r\n<メモライズ容量補正 60,55,55,40,60>\r\n<魔法反撃 50%>\r\n<武器マスタリー 2-220,3-220,4-220,6-220>"
Class 021
 Name "***ダミー"
Class 022
 Name "Martial Artist"
 Notes "<職業ランク 1>\r\n<メモライズ容量補正 25,20,15,15,20>"
Class 023
 Name "Overpowering Fist"
 Notes "<要求経験職 22-10>\r\n<職業ランク 2>\r\n<最大TP増加 10%>\r\n<メモライズ容量補正 35,30,25,25,30>"
Class 024
 Name "Saint Fist"
 Notes "<要求経験職 23-10>\r\n<転職アイテム 623>\r\n<職業ランク 3>\r\n<最大TP増加 20%>\r\n<メモライズ容量補正 60,55,45,45,55>\r\n<武器マスタリー 11-220>"
Class 025
 Name "Dark Fist"
 Notes "<要求経験職 23-10>\r\n<転職アイテム 623>\r\n<職業ランク 3>\r\n<最大TP増加 20%>\r\n<メモライズ容量補正 60,55,45,45,55>"
Class 026
 Name "Magus Fist"
 Notes "<要求経験職 22-10,33-10>\r\n<職業ランク 2>\r\n<メモライズ容量補正 35,25,30,20,30>\r\n<魔法反撃 25%>"
Class 027
 Name "Force Monk"
 Notes "<要求経験職 26-10>\r\n<転職アイテム 623>\r\n<職業ランク 3>\r\n<最大TP増加 10%>\r\n<メモライズ容量補正 60,45,55,40,55>\r\n<魔法反撃 50%>\r\n<武器マスタリー 11-220>"
Class 028
 Name "Paladin"
 Notes "<要求経験職 22-10,44-10>\r\n<職業ランク 2>\r\n<メモライズ容量補正 35,25,25,40,35>"
Class 029
 Name "God Hand"
 Notes "<要求経験職 28-10>\r\n<転職アイテム 623>\r\n<職業ランク 3>\r\n<最大TP増加 10%>\r\n<メモライズ容量補正 60,45,45,70,60>\r\n<武器マスタリー 11-220>"
Class 030
 Name "Battle Master"
 Notes "<要求経験職 1-10,22-10>\r\n<職業ランク 2>\r\n<最大TP増加 20%>\r\n<メモライズ容量補正 40,30,20,40,30>"
Class 031
 Name "***ダミー"
Class 032
 Name "***ダミー"
Class 033
 Name "Magician"
 Notes "<職業ランク 1>\r\n<最大TP減少 30%>\r\n<メモライズ容量補正 10,15,30,15,25>"
Class 034
 Name "Black Mage"
 Notes "<要求経験職 33-10>\r\n<職業ランク 2>\r\n<最大TP減少 20%>\r\n<メモライズ容量補正 20,25,40,25,35>"
Class 035
 Name "Inferno Mage"
 Notes "<要求経験職 34-10>\r\n<転職アイテム 626>\r\n<職業ランク 3>\r\n<最大TP減少 10%>\r\n<メモライズ容量補正 40,45,70,45,60>\r\n<武器マスタリー 6-220,15-220,16-220,17-220,29-220>"
Class 036
 Name "Arctic Mage"
 Notes "<要求経験職 34-10>\r\n<転職アイテム 626>\r\n<職業ランク 3>\r\n<最大TP減少 10%>\r\n<メモライズ容量補正 40,45,70,45,60>\r\n<武器マスタリー 6-220,15-220,16-220,17-220,29-220>"
Class 037
 Name "Gigavolt Mage"
 Notes "<要求経験職 34-10>\r\n<転職アイテム 626>\r\n<職業ランク 3>\r\n<最大TP減少 10%>\r\n<メモライズ容量補正 40,45,70,45,60>\r\n<武器マスタリー 6-220,15-220,16-220,17-220,29-220>"
Class 038
 Name "Time Mage"
 Notes "<要求経験職 33-10>\r\n<職業ランク 2>\r\n<最大TP減少 20%>\r\n<メモライズ容量補正 20,30,35,25,30>"
Class 039
 Name "Spacetime Mage"
 Notes "<要求経験職 38-10>\r\n<転職アイテム 626>\r\n<職業ランク 3>\r\n<最大TP減少 10%>\r\n<メモライズ容量補正 40,55,60,45,55>\r\n<武器マスタリー 6-220,15-220,16-220,17-220,29-220>"
Class 040
 Name "Summoner"
 Notes "<要求経験職 33-10>\r\n<転職アイテム 605>\r\n<職業ランク 2>\r\n<最大TP減少 30%>\r\n<メモライズ容量補正 20,25,40,20,40>"
Class 041
 Name "Spirit Summoner"
 Notes "<要求経験職 40-10>\r\n<転職アイテム 626>\r\n<職業ランク 3>\r\n<最大TP減少 20%>\r\n<メモライズ容量補正 40,45,70,40,70>\r\n<武器マスタリー 6-220,15-220,16-220,17-220,29-220>"
Class 042
 Name "Taoist"
 Notes "<要求経験職 33-10>\r\n<転職アイテム 603>\r\n<職業ランク 2>\r\n<最大TP減少 10%>\r\n<メモライズ容量補正 25,35,35,20,35>"
Class 043
 Name "Cosmic Taoist"
 Notes "<要求経験職 42-10>\r\n<転職アイテム 626>\r\n<職業ランク 3>\r\n<メモライズ容量補正 45,60,60,40,60>\r\n<武器マスタリー 6-220,15-220,16-220,17-220,29-220>"
Class 044
 Name "Priest"
 Notes "<職業ランク 1>\r\n<最大TP減少 10%>\r\n<メモライズ容量補正 15,15,25,20,25>"
Class 045
 Name "White Mage"
 Notes "<要求経験職 44-10>\r\n<職業ランク 2>\r\n<最大TP減少 5%>\r\n<メモライズ容量補正 25,25,35,30,35>"
Class 046
 Name "Holy Mage"
 Notes "<要求経験職 45-10>\r\n<転職アイテム 626>\r\n<職業ランク 3>\r\n<メモライズ容量補正 45,45,60,55,60>\r\n<武器マスタリー 6-220,15-220,16-220,17-220,29-220>"
Class 047
 Name "Sage"
 Notes "<要求経験職 33-10,44-10>\r\n<職業ランク 2>\r\n<最大TP減少 10%>\r\n<メモライズ容量補正 25,30,40,25,40>"
Class 048
 Name "Cosmic Magus"
 Notes "<要求経験職 34-10,38-10,40-10,45-10,47-10>\r\n<転職アイテム 642>\r\n<職業ランク 3>\r\n<メモライズ容量補正 45,55,70,45,70>\r\n<武器マスタリー 6-220,15-220,16-220,17-220,29-220>"
Class 049
 Name "Magical Girl"
 Notes "<要求経験職 33-10>\r\n<転職アイテム 607>\r\n<職業ランク 2>\r\n<メモライズ容量補正 25,25,40,20,40>"
Class 050
 Name "***ダミー"
Class 051
 Name "***ダミー"
Class 052
 Name "Hunter"
 Notes "<職業ランク 1>\r\n<メモライズ容量補正 20,25,15,15,30>\r\n<森地形強化>\r\n<属性強化 11-100,12-100,13-100,14-100,15-100,16-100,17-100,18-100,19-100,20-100,21-100,22-100,23-100,24-100,25-100,26-100,27-100,28-100,29-100,30-100,31-100,32-100,33-100,34-100,37-100>"
Class 053
 Name "Bowmaster"
 Notes "<要求経験職 52-10>\r\n<職業ランク 2>\r\n<最大TP増加 5%>\r\n<メモライズ容量補正 30,35,25,25,40>\r\n<森地形強化>\r\n<属性強化 11-100,12-100,13-100,14-100,15-100,16-100,17-100,18-100,19-100,20-100,21-100,22-100,23-100,24-100,25-100,26-100,27-100,28-100,29-100,30-100,31-100,32-100,33-100,34-100,37-100>"
Class 054
 Name "Holy Archer"
 Notes "<要求経験職 53-10>\r\n<転職アイテム 627>\r\n<職業ランク 3>\r\n<最大TP増加 10%>\r\n<メモライズ容量補正 55,60,45,45,70>\r\n<森地形超強化>\r\n<属性強化 11-100,12-100,13-100,14-100,15-100,16-100,17-100,18-100,19-100,20-100,21-100,22-100,23-100,24-100,25-100,26-100,27-100,28-100,29-100,30-100,31-100,32-100,33-100,34-100,37-100>\r\n<武器マスタリー 18-220>"
Class 055
 Name "Shadow Hunter"
 Notes "<要求経験職 53-10>\r\n<転職アイテム 627>\r\n<職業ランク 3>\r\n<最大TP増加 10%>\r\n<メモライズ容量補正 55,60,45,45,70>\r\n<森地形超強化>\r\n<属性強化 11-100,12-100,13-100,14-100,15-100,16-100,17-100,18-100,19-100,20-100,21-100,22-100,23-100,24-100,25-100,26-100,27-100,28-100,29-100,30-100,31-100,32-100,33-100,34-100,37-100>\r\n<武器マスタリー 18-220>"
Class 056
 Name "Gunner"
 Notes "<要求経験職 52-10>\r\n<転職アイテム 606>\r\n<職業ランク 2>\r\n<メモライズ容量補正 30,35,25,20,35>\r\n<属性強化 11-100,12-100,13-100,14-100,15-100,16-100,17-100,18-100,19-100,20-100,21-100,22-100,23-100,24-100,25-100,26-100,27-100,28-100,29-100,30-100,31-100,32-100,33-100,34-100,37-100>"
Class 057
 Name "God's Eye"
 Notes "<要求経験職 56-10>\r\n<転職アイテム 627>\r\n<職業ランク 3>\r\n<メモライズ容量補正 55,60,45,40,60>\r\n<属性強化 11-100,12-100,13-100,14-100,15-100,16-100,17-100,18-100,19-100,20-100,21-100,22-100,23-100,24-100,25-100,26-100,27-100,28-100,29-100,30-100,31-100,32-100,33-100,34-100,37-100>\r\n<武器マスタリー 30-220>"
Class 058
 Name "Devil's Eye"
 Notes "<要求経験職 56-10>\r\n<転職アイテム 627>\r\n<職業ランク 3>\r\n<メモライズ容量補正 55,60,45,40,60>\r\n<属性強化 11-100,12-100,13-100,14-100,15-100,16-100,17-100,18-100,19-100,20-100,21-100,22-100,23-100,24-100,25-100,26-100,27-100,28-100,29-100,30-100,31-100,32-100,33-100,34-100,37-100>"
Class 059
 Name "Monster Tamer"
 Notes "<要求経験職 52-10>\r\n<職業ランク 2>\r\n<最大TP増加 5%>\r\n<メモライズ容量補正 30,35,25,30,35>\r\n<仲間加入倍率 150%>\r\n<属性強化 11-100,12-100,13-100,14-100,15-100,16-100,17-100,18-100,19-100,20-100,21-100,22-100,23-100,24-100,25-100,26-100,27-100,28-100,29-100,30-100,31-100,32-100,33-100,34-100,37-100>"
Class 060
 Name "Dragon Tamer"
 Notes "<要求経験職 59-10>\r\n<転職アイテム 627>\r\n<職業ランク 3>\r\n<最大TP増加 10%>\r\n<メモライズ容量補正 55,60,45,55,60>\r\n<仲間加入倍率 200%>\r\n<属性強化 11-100,12-100,13-100,14-100,15-100,16-100,17-100,18-100,19-100,20-100,21-100,22-100,23-100,24-100,25-100,26-100,27-100,28-100,29-100,30-100,31-100,32-100,33-100,34-100,37-100>\r\n<武器マスタリー 19-220>"
Class 061
 Name "Devil Summoner"
 Notes "<要求経験職 59-10>\r\n<転職アイテム 627>\r\n<職業ランク 3>\r\n<最大TP増加 10%>\r\n<メモライズ容量補正 55,60,45,55,60>\r\n<仲間加入倍率 200%>\r\n<属性強化 11-100,12-100,13-100,14-100,15-100,16-100,17-100,18-100,19-100,20-100,21-100,22-100,23-100,24-100,25-100,26-100,27-100,28-100,29-100,30-100,31-100,32-100,33-100,34-100,37-100>"
Class 062
 Name "Thief"
 Notes "<職業ランク 1>\r\n<メモライズ容量補正 20,20,20,20,30>\r\n<スティール成功率 150%>"
Class 063
 Name "Master Thief"
 Notes "<要求経験職 62-10>\r\n<職業ランク 2>\r\n<メモライズ容量補正 30,30,30,30,40>\r\n<スティール成功率 200%>"
Class 064
 Name "Trickster"
 Notes "<要求経験職 63-10>\r\n<転職アイテム 625>\r\n<職業ランク 3>\r\n<メモライズ容量補正 55,55,55,55,70>\r\n<スティール成功率 300%>\r\n<武器マスタリー 1-220>"
Class 065
 Name "Ninja"
 Notes "<要求経験職 62-10>\r\n<転職アイテム 603>\r\n<職業ランク 2>\r\n<メモライズ容量補正 35,35,20,20,25>"
Class 066
 Name "Master Shinobi"
 Notes "<要求経験職 65-10>\r\n<転職アイテム 625>\r\n<職業ランク 3>\r\n<メモライズ容量補正 60,60,40,40,45>"
Class 067
 Name "Erotic Kunoichi"
 Notes "<要求経験職 65-10>\r\n<転職アイテム 628>\r\n<職業ランク 3>\r\n<メモライズ容量補正 60,60,40,40,45>"
Class 068
 Name "Pirate"
 Notes "<要求経験職 62-10>\r\n<転職アイテム 608>\r\n<職業ランク 2>\r\n<メモライズ容量補正 40,40,20,35,30>\r\n<最大TP増加 20%>\r\n<TP消費率 75%>\r\n<海地形強化>"
Class 069
 Name "Pirate King"
 Notes "<要求経験職 68-10>\r\n<転職アイテム 633>\r\n<職業ランク 3>\r\n<最大TP増加 30%>\r\n<メモライズ容量補正 70,70,40,60,55>\r\n<TP消費率 50%>\r\n<海地形超強化>"
Class 070
 Name "***ダミー"
Class 071
 Name "***ダミー"
Class 072
 Name "Guard"
 Notes "<転職アイテム 602>\r\n<職業ランク 1>\r\n<最大TP増加 5%>\r\n<メモライズ容量補正 25,20,10,20,15>\r\n<市街地形強化>"
Class 073
 Name "Royal Guard"
 Notes "<要求経験職 1-10,72-10>\r\n<職業ランク 2>\r\n<最大TP増加 20%>\r\n<メモライズ容量補正 35,30,20,30,25>\r\n<市街地形強化>"
Class 074
 Name "***ダミー"
Class 075
 Name "Marine"
 Notes "<要求経験職 72-10>\r\n<転職アイテム 608>\r\n<職業ランク 2>\r\n<最大TP増加 20%>\r\n<メモライズ容量補正 40,40,20,35,30>\r\n<海地形強化>\r\n<開始時TP 75%>"
Class 076
 Name "Admiral"
 Notes "<要求経験職 75-10>\r\n<転職アイテム 633>\r\n<職業ランク 3>\r\n<最大TP増加 30%>\r\n<メモライズ容量補正 70,70,40,60,55>\r\n<海地形超強化>\r\n<開始時TP 100%>\r\n<武器マスタリー 2-220,3-220,4-220,6-220,30-220>"
Class 077
 Name "Hero of Justice"
 Notes "<要求経験職 72-10>\r\n<転職アイテム 609>\r\n<職業ランク 2>\r\n<メモライズ容量補正 35,35,20,25,30>\r\n<HP減少時強化 20,50%>\r\n<オーバーソウル 25%>"
Class 078
 Name "***ダミー"
Class 079
 Name "Merchant"
 Notes "<転職アイテム 601>\r\n<職業ランク 1>\r\n<メモライズ容量補正 10,25,10,20,20>\r\n<獲得金額倍率 150%>"
Class 080
 Name "Black Marketeer"
 Notes "<要求経験職 79-10>\r\n<職業ランク 2>\r\n<最大TP増加 5%>\r\n<メモライズ容量補正 20,35,20,30,30>\r\n<獲得金額倍率 200%>"
Class 081
 Name "Invisible Hand of God"
 Notes "<要求経験職 80-10>\r\n<転職アイテム 636>\r\n<職業ランク 3>\r\n<最大TP増加 10%>\r\n<メモライズ容量補正 40,60,40,55,55>\r\n<獲得金額倍率 300%>\r\n<武器マスタリー 25-220>"
Class 082
 Name "Item User"
 Notes "<要求経験職 79-10>\r\n<職業ランク 2>\r\n<最大TP増加 5%>\r\n<メモライズ容量補正 20,35,20,25,35>"
Class 083
 Name "Item Master"
 Notes "<要求経験職 82-10>\r\n<転職アイテム 636>\r\n<職業ランク 3>\r\n<最大TP増加 10%>\r\n<メモライズ容量補正 40,60,40,45,60>\r\n<武器マスタリー 21-220>"
Class 084
 Name "Adventurer"
 Notes "<要求経験職 52-10,62-10>\r\n<職業ランク 2>\r\n<最大TP増加 15%>\r\n<メモライズ容量補正 35,35,20,35,35>\r\n<砂漠地形強化>\r\n<洞窟地形強化>"
Class 085
 Name "Ranger"
 Notes "<要求経験職 84-10>\r\n<転職アイテム 627>\r\n<職業ランク 3>\r\n<最大TP増加 30%>\r\n<メモライズ容量補正 60,60,40,60,60>\r\n<砂漠地形超強化>\r\n<洞窟地形超強化>\r\n<武器マスタリー 21-220>"
Class 086
 Name "Fortune Teller"
 Notes "<転職アイテム 610>\r\n<職業ランク 1>\r\n<最大TP減少 10%>\r\n<メモライズ容量補正 10,20,20,10,30>\r\n<獲得アイテム倍率 150%>\r\n<スロットチャンス 1>"
Class 087
 Name "Gambler"
 Notes "<要求経験職 86-10>\r\n<職業ランク 2>\r\n<メモライズ容量補正 25,30,20,25,40>\r\n<獲得アイテム倍率 200%>\r\n<スロットチャンス 2>"
Class 088
 Name "Dark Gambler"
 Notes "<要求経験職 87-10>\r\n<転職アイテム 636>\r\n<職業ランク 3>\r\n<メモライズ容量補正 45,55,40,45,70>\r\n<最大TP増加 10%>\r\n<獲得アイテム倍率 300%>\r\n<スロットチャンス 3>\r\n<武器マスタリー 27-220>"
Class 089
 Name "Card Battler"
 Notes "<要求経験職 86-10>\r\n<職業ランク 2>\r\n<メモライズ容量補正 25,30,25,20,40>"
Class 090
 Name "Card Summoner"
 Notes "<要求経験職 89-10>\r\n<転職アイテム 636>\r\n<職業ランク 3>\r\n<最大TP増加 10%>\r\n<メモライズ容量補正 45,55,45,40,70>\r\n<武器マスタリー 27-220>"
Class 091
 Name "Godfather"
 Notes "<要求経験職 63-10,80-10,87-10>\r\n<転職アイテム 636>\r\n<職業ランク 3>\r\n<最大TP増加 30%>\r\n<メモライズ容量補正 60,60,45,55,55>\r\n<スロットチャンス 3>"
Class 092
 Name "Gadabout"
 Notes "<職業ランク 1>\r\n<最大TP減少 30%>\r\n<メモライズ容量補正 10,10,10,10,30>\r\n<行動変化 28-50>\r\n<スロットチャンス 1>"
Class 093
 Name "Dancer"
 Notes "<要求経験職 92-10>\r\n<職業ランク 2>\r\n<最大TP増加 5%>\r\n<メモライズ容量補正 25,35,30,20,30>"
Class 094
 Name "War Miko"
 Notes "<要求経験職 93-10>\r\n<転職アイテム 632>\r\n<職業ランク 3>\r\n<最大TP増加 10%>\r\n<メモライズ容量補正 45,60,55,40,55>\r\n<武器マスタリー 23-220>"
Class 095
 Name "Minstrel"
 Notes "<要求経験職 92-10>\r\n<職業ランク 2>\r\n<最大TP増加 5%>\r\n<メモライズ容量補正 25,35,25,25,30>"
Class 096
 Name "Divine Songstress"
 Notes "<要求経験職 95-10>\r\n<転職アイテム 632>\r\n<職業ランク 3>\r\n<最大TP増加 10%>\r\n<メモライズ容量補正 45,60,45,45,55>\r\n<武器マスタリー 20-220>"
Class 097
 Name "Prostitute"
 Notes "<要求経験職 92-10>\r\n<職業ランク 2>\r\n<最大TP増加 5%>\r\n<メモライズ容量補正 20,35,20,20,35>"
Class 098
 Name "Saintly Prostitute"
 Notes "<要求経験職 97-10>\r\n<転職アイテム 628>\r\n<職業ランク 3>\r\n<最大TP増加 10%>\r\n<メモライズ容量補正 40,60,40,40,60>\r\n<武器マスタリー 31-220>"
Class 099
 Name "Devilish Prostitute"
 Notes "<要求経験職 97-10>\r\n<転職アイテム 628>\r\n<職業ランク 3>\r\n<最大TP増加 10%>\r\n<メモライズ容量補正 40,60,40,40,60>\r\n<武器マスタリー 31-220>"
Class 100
 Name "Superstar"
 Notes "<要求経験職 93-10,95-10>\r\n<職業ランク 2>\r\n<最大TP増加 15%>\r\n<メモライズ容量補正 35,50,40,35,50>"
Class 101
 Name "Battle Fucker"
 Notes "<要求経験職 97-10>\r\n<転職アイテム 611>\r\n<職業ランク 2>\r\n<最大TP増加 10%>\r\n<メモライズ容量補正 25,35,20,35,35>"
Class 102
 Name "***ダミー"
Class 103
 Name "Scholar"
 Notes "<転職アイテム 612>\r\n<職業ランク 1>\r\n<メモライズ容量補正 10,25,20,10,25>"
Class 104
 Name "Magical Scholar"
 Notes "<要求経験職 103-10>\r\n<職業ランク 2>\r\n<最大TP増加 10%>\r\n<メモライズ容量補正 20,35,30,20,35>"
Class 105
 Name "Master Scholar"
 Notes "<要求経験職 104-10>\r\n<転職アイテム 631>\r\n<職業ランク 3>\r\n<最大TP増加 20%>\r\n<メモライズ容量補正 40,60,55,40,60>\r\n<武器マスタリー 6-220,15-220,16-220,17-220,29-220>"
Class 106
 Name "Alchemist"
 Notes "<要求経験職 103-10>\r\n<職業ランク 2>\r\n<最大TP減少 10%>\r\n<メモライズ容量補正 30,30,30,20,35>"
Class 107
 Name "Golden Alchemist"
 Notes "<要求経験職 106-10>\r\n<転職アイテム 631>\r\n<職業ランク 3>\r\n<メモライズ容量補正 55,55,55,40,60>\r\n<武器マスタリー 6-220,15-220,16-220,17-220,29-220>"
Class 108
 Name "Magical Librarian"
 Notes "<要求経験職 103-10>\r\n<職業ランク 2>\r\n<最大TP減少 20%>\r\n<メモライズ容量補正 20,30,40,20,35>"
Class 109
 Name "Library Lord"
 Notes "<要求経験職 108-10>\r\n<転職アイテム 631>\r\n<職業ランク 3>\r\n<最大TP減少 10%>\r\n<メモライズ容量補正 40,55,70,55,60>\r\n<武器マスタリー 6-220,15-220,16-220,17-220,29-220>"
Class 110
 Name "Engineer"
 Notes "<転職アイテム 613>\r\n<職業ランク 1>\r\n<最大TP増加 10%>\r\n<メモライズ容量補正 20,25,10,20,20>"
Class 111
 Name "Machinist"
 Notes "<要求経験職 110-10>\r\n<職業ランク 2>\r\n<最大TP増加 20%>\r\n<メモライズ容量補正 30,35,20,30,30>"
Class 112
 Name "Makina Master"
 Notes "<要求経験職 111-10>\r\n<転職アイテム 629>\r\n<職業ランク 3>\r\n<最大TP増加 30%>\r\n<メモライズ容量補正 55,60,40,55,55>\r\n<武器マスタリー 30-220>"
Class 113
 Name "Spiritualist"
 Notes "<転職アイテム 614>\r\n<職業ランク 1>\r\n<メモライズ容量補正 15,30,25,20,25>"
Class 114
 Name "Necromancer"
 Notes "<要求経験職 113-10>\r\n<職業ランク 2>\r\n<最大TP増加 5%>\r\n<メモライズ容量補正 25,40,30,35,35>"
Class 115
 Name "Necromaster"
 Notes "<要求経験職 114-10>\r\n<転職アイテム 630>\r\n<職業ランク 3>\r\n<最大TP増加 10%>\r\n<メモライズ容量補正 45,70,55,60,60>\r\n<武器マスタリー 6-220,15-220,16-220,17-220,29-220>"
Class 116
 Name "Medium"
 Notes "<要求経験職 113-10>\r\n<職業ランク 2>\r\n<最大TP増加 5%>\r\n<メモライズ容量補正 25,40,35,30,35>"
Class 117
 Name "Master Shaman"
 Notes "<要求経験職 116-10>\r\n<転職アイテム 630>\r\n<職業ランク 3>\r\n<最大TP増加 10%>\r\n<メモライズ容量補正 45,70,60,55,60>\r\n<武器マスタリー 6-220,15-220,16-220,17-220,29-220>"
Class 118
 Name "Puppeteer"
 Notes "<要求経験職 113-10>\r\n<職業ランク 2>\r\n<最大TP増加 10%>\r\n<メモライズ容量補正 30,40,30,30,35>"
Class 119
 Name "Puppet Master"
 Notes "<要求経験職 118-10>\r\n<転職アイテム 630>\r\n<職業ランク 3>\r\n<最大TP増加 20%>\r\n<メモライズ容量補正 55,70,55,55,60>\r\n<武器マスタリー 6-220,15-220,16-220,17-220,29-220>"
Class 120
 Name "Informant"
 Notes "<転職アイテム 615>\r\n<職業ランク 1>\r\n<メモライズ容量補正 15,25,15,15,25>"
Class 121
 Name "Smooth Talker"
 Notes "<要求経験職 120-10>\r\n<職業ランク 2>\r\n<最大TP増加 5%>\r\n<メモライズ容量補正 25,35,25,25,35>"
Class 122
 Name "God of Speech"
 Notes "<要求経験職 121-10>\r\n<転職アイテム 637>\r\n<職業ランク 3>\r\n<最大TP増加 10%>\r\n<メモライズ容量補正 45,60,45,45,60>\r\n<武器マスタリー 21-220>"
Class 123
 Name "Cook"
 Notes "<転職アイテム 616>\r\n<職業ランク 1>\r\n<メモライズ容量補正 20,25,10,20,20>"
Class 124
 Name "Three Star Chef"
 Notes "<要求経験職 123-10>\r\n<職業ランク 2>\r\n<最大TP増加 5%>\r\n<メモライズ容量補正 30,35,20,30,30>"
Class 125
 Name "Flavor Emperor"
 Notes "<要求経験職 124-10>\r\n<転職アイテム 637>\r\n<職業ランク 3>\r\n<最大TP増加 10%>\r\n<メモライズ容量補正 55,60,40,55,55>\r\n<武器マスタリー 24-220>"
Class 126
 Name "Nurse"
 Notes "<転職アイテム 617>\r\n<職業ランク 1>\r\n<メモライズ容量補正 10,25,20,15,20>"
Class 127
 Name "Doctor"
 Notes "<要求経験職 126-10>\r\n<職業ランク 2>\r\n<最大TP増加 5%>\r\n<メモライズ容量補正 20,35,30,25,30>"
Class 128
 Name "Godly Doctor"
 Notes "<要求経験職 127-10>\r\n<転職アイテム 637>\r\n<職業ランク 3>\r\n<最大TP増加 10%>\r\n<メモライズ容量補正 40,60,55,45,55>\r\n<武器マスタリー 26-220>"
Class 129
 Name "Maid"
 Notes "<転職アイテム 618>\r\n<職業ランク 1>\r\n<最大TP増加 5%>\r\n<メモライズ容量補正 10,30,20,20,30>"
Class 130
 Name "Master Maid"
 Notes "<要求経験職 129-10>\r\n<職業ランク 2>\r\n<最大TP増加 10%>\r\n<メモライズ容量補正 20,40,30,30,40>"
Class 131
 Name "Grandmaster Maid"
 Notes "<要求経験職 130-10>\r\n<転職アイテム 637>\r\n<職業ランク 3>\r\n<最大TP増加 15%>\r\n<メモライズ容量補正 40,70,55,55,70>\r\n<武器マスタリー 28-220>"
Class 132
 Name "***ダミー"
Class 133
 Name "***ダミー"
Class 134
 Name "Noble"
 Notes "<転職アイテム 619>\r\n<職業ランク 1>\r\n<メモライズ容量補正 20,20,20,20,25>"
Class 135
 Name "King"
 Notes "<要求経験職 1-10,134-10>\r\n<転職アイテム 620>\r\n<職業ランク 2>\r\n<最大TP増加 20%>\r\n<メモライズ容量補正 35,35,30,30,40>"
Class 136
 Name "***ダミー"
Class 137
 Name "Magus King"
 Notes "<要求経験職 47-10,135-10>\r\n<転職アイテム 642>\r\n<職業ランク 3>\r\n<最大TP増加 10%>\r\n<メモライズ容量補正 55,70,70,55,60>\r\n<武器マスタリー 6-220,15-220,16-220,17-220,29-220>"
Class 138
 Name "Pope"
 Notes "<要求経験職 44-10,134-10>\r\n<転職アイテム 620>\r\n<職業ランク 2>\r\n<メモライズ容量補正 20,40,40,30,40>"
Class 139
 Name "***ダミー"
Class 140
 Name "***ダミー"
Class 141
 Name "Apprentice Hero"
 Notes "<職業ランク 1>\r\n<最大TP増加 10%>\r\n<メモライズ容量補正 25,20,15,20,25>"
Class 142
 Name "Hero"
 Notes "<要求経験職 1-10,141-10>\r\n<転職アイテム 621>\r\n<職業ランク 2>\r\n<最大TP増加 20%>\r\n<メモライズ容量補正 40,35,30,35,40>"
Class 143
 Name "Goddess' Apostle"
 Notes "<要求経験職 142-10>\r\n<転職アイテム 641>\r\n<職業ランク 3>\r\n<最大TP増加 30%>\r\n<メモライズ容量補正 70,60,55,60,70>\r\n<武器マスタリー 2-220,3-220,4-220,6-220>"
Class 144
 Name "Corrupted Hero"
 Notes "<要求経験職 142-10>\r\n<転職アイテム 642>\r\n<職業ランク 3>\r\n<最大TP増加 30%>\r\n<メモライズ容量補正 70,60,55,60,70>\r\n<武器マスタリー 2-220,3-220,4-220,6-220>"
Class 145
 Name "***ダミー"
Class 146
 Name "***ダミー"
Class 147
 Name "***ダミー"
Class 148
 Name "***ダミー"
Class 149
 Name "Unemployed"
 Notes "<職業ランク 1>\r\n<メモライズ容量補正 20,20,20,20,20>"
Class 151
 Name "Human"
 Notes "<職業ランク 1>"
Class 152
 Name "Demonoid"
 Notes "<要求経験職 151-10,160-10,365-10>\r\n<転職アイテム 657>\r\n<職業ランク 2>\r\n<HPタイプ消費率 6,50%>\r\n<HPタイプ消費率 7,50%>\r\n<HPタイプ消費率 9,50%>\r\n<HPタイプ消費率 10,50%>\r\n<HPタイプ消費率 14,50%>\r\n<HPタイプ消費率 18,50%>\r\n<HPタイプ消費率 19,50%>\r\n<HPタイプ消費率 21,50%>\r\n<HPタイプ消費率 25,50%>\r\n<HPタイプ消費率 27,50%>\r\n<HPタイプ消費率 29,50%>\r\n<HPタイプ消費率 31,50%>\r\n<HPタイプ消費率 33,50%>\r\n<HPタイプ消費率 40,50%>\r\n<HPタイプ消費率 42,50%>\r\n<HPタイプ消費率 48,50%>\r\n<HPタイプ消費率 50,50%>\r\n<HPタイプ消費率 57,50%>\r\n<HPタイプ消費率 62,50%>"
Class 153
 Name "Archfiend"
 Notes "<要求経験職 48-10,152-10>\r\n<転職アイテム 658>\r\n<職業ランク 3>\r\n<HPタイプ消費率 6,0%>\r\n<HPタイプ消費率 7,0%>\r\n<HPタイプ消費率 9,0%>\r\n<HPタイプ消費率 10,0%>\r\n<HPタイプ消費率 14,0%>\r\n<HPタイプ消費率 18,0%>\r\n<HPタイプ消費率 19,0%>\r\n<HPタイプ消費率 21,0%>\r\n<HPタイプ消費率 25,0%>\r\n<HPタイプ消費率 27,0%>\r\n<HPタイプ消費率 29,0%>\r\n<HPタイプ消費率 31,0%>\r\n<HPタイプ消費率 33,0%>\r\n<HPタイプ消費率 40,0%>\r\n<HPタイプ消費率 42,0%>\r\n<HPタイプ消費率 48,0%>\r\n<HPタイプ消費率 50,0%>\r\n<HPタイプ消費率 57,0%>\r\n<HPタイプ消費率 62,0%>"
Class 154
 Name "Chaos"
 Notes "<要求経験職 51-10,153-10>\r\n<転職アイテム 664>\r\n<職業ランク 4>\r\n<メモライズ容量補正 100,100,100,100,100>"
Class 155
 Name "Worm Summoner"
 Notes "<要求経験職 151-10>\r\n<転職アイテム 638>\r\n<職業ランク 2>"
Class 156
 Name "Master Homunculus"
 Notes "<要求経験職 155-10>\r\n<転職アイテム 626>\r\n<職業ランク 3>"
Class 157
 Name "***ダミー"
Class 158
 Name "Yoma"
 Notes "<職業ランク 1>\r\n<通常攻撃強化 5-20>\r\n<武器スキル倍率強化 5-8-20>"
Class 159
 Name "High Yoma"
 Notes "<要求経験職 158-10>\r\n<職業ランク 2>\r\n<通常攻撃強化 5-20>\r\n<武器スキル倍率強化 5-8-20>"
Class 160
 Name "Noble Yoma"
 Notes "<要求経験職 159-10>\r\n<転職アイテム 625>\r\n<職業ランク 3>\r\n<通常攻撃強化 5-20>\r\n<武器スキル倍率強化 5-8-20>"
Class 161
 Name "Holy Yoma"
 Notes "<要求経験職 158-10>\r\n<職業ランク 2>\r\n<通常攻撃強化 5-20>\r\n<武器スキル倍率強化 5-8-20>"
Class 162
 Name "Divine Yoma"
 Notes "<要求経験職 161-10>\r\n<転職アイテム 626>\r\n<職業ランク 3>\r\n<通常攻撃強化 5-20>\r\n<武器スキル倍率強化 5-8-20>"
Class 163
 Name "Bestial Yoma"
 Notes "<要求経験職 158-10>\r\n<職業ランク 2>\r\n<トリガーステート H,0,20%,30>\r\n<トリガーステート H,0,20%,33>\r\n<トリガーステート H,0,20%,36>\r\n<トリガーステート H,0,20%,39>\r\n<通常攻撃強化 5-20>\r\n<武器スキル倍率強化 5-8-20>"
Class 164
 Name "Feral Yoma"
 Notes "<要求経験職 163-10>\r\n<転職アイテム 624>\r\n<職業ランク 3>\r\n<トリガーステート H,0,20%,31>\r\n<トリガーステート H,0,20%,34>\r\n<トリガーステート H,0,20%,37>\r\n<トリガーステート H,0,20%,40>\r\n<通常攻撃強化 5-20>\r\n<武器スキル倍率強化 5-8-20>"
Class 165
 Name "Sphinx"
 Notes "<要求経験職 160-10,162-10,164-10>\r\n<転職アイテム 643>\r\n<職業ランク 3>\r\n<通常攻撃強化 5-30>\r\n<武器スキル倍率強化 5-8-30>"
Class 166
 Name "***ダミー"
Class 167
 Name "Demi-Human"
 Notes "<職業ランク 1>\r\n<通常攻撃強化 15-20>\r\n<武器スキル倍率強化 15-13-20>"
Class 168
 Name "Youkai"
 Notes "<要求経験職 167-10>\r\n<職業ランク 2>\r\n<TP消費率 75%>\r\n<通常攻撃強化 15-20>\r\n<武器スキル倍率強化 15-13-20>"
Class 169
 Name "Elder Youkai"
 Notes "<要求経験職 168-10>\r\n<転職アイテム 627>\r\n<職業ランク 3>\r\n<TP消費率 50%>\r\n<通常攻撃強化 15-20>\r\n<武器スキル倍率強化 15-13-20>"
Class 170
 Name "Oni"
 Notes "<要求経験職 167-10>\r\n<職業ランク 2>\r\n<開始時TP 75%>"
Class 171
 Name "Kishin"
 Notes "<要求経験職 170-10>\r\n<転職アイテム 624>\r\n<職業ランク 3>\r\n<開始時TP 100%>"
Class 172
 Name "Yasha"
 Notes "<要求経験職 167-10>\r\n<転職アイテム 603>\r\n<職業ランク 2>"
Class 173
 Name "Asura"
 Notes "<要求経験職 172-10>\r\n<転職アイテム 622>\r\n<職業ランク 3>"
Class 174
 Name "***ダミー"
Class 175
 Name "Imp"
 Notes "<職業ランク 1>"
Class 176
 Name "Succubus"
 Notes "<要求経験職 175-10>\r\n<職業ランク 2>"
Class 177
 Name "Elder Succubus"
 Notes "<要求経験職 176-10>\r\n<転職アイテム 628>\r\n<職業ランク 3>"
Class 178
 Name "Succubus Monk"
 Notes "<要求経験職 175-10>\r\n<職業ランク 2>"
Class 179
 Name "Lewdfighter Succubus"
 Notes "<要求経験職 178-10>\r\n<転職アイテム 623>\r\n<職業ランク 3>"
Class 180
 Name "Succubus Witch"
 Notes "<要求経験職 175-10>\r\n<職業ランク 2>"
Class 181
 Name "Arc Succubus"
 Notes "<要求経験職 180-10>\r\n<転職アイテム 626>\r\n<職業ランク 3>"
Class 182
 Name "Queen Succubus"
 Notes "<要求経験職 177-10,179-10,181-10>\r\n<転職アイテム 644>\r\n<職業ランク 3>"
Class 183
 Name "***ダミー"
Class 184
 Name "Vampire"
 Notes "<職業ランク 1>\r\n<通常攻撃強化 1-20>\r\n<武器スキル倍率強化 1-6-20>"
Class 185
 Name "Nosferatu"
 Notes "<要求経験職 184-10>\r\n<職業ランク 2>\r\n<通常攻撃強化 1-20>\r\n<武器スキル倍率強化 1-6-20>"
Class 186
 Name "Night Emperor"
 Notes "<要求経験職 185-10>\r\n<転職アイテム 627>\r\n<職業ランク 3>\r\n<通常攻撃強化 1-20>\r\n<武器スキル倍率強化 1-6-20>"
Class 187
 Name "Vampire Magus"
 Notes "<要求経験職 184-10>\r\n<職業ランク 2>"
Class 188
 Name "Arc Vampire"
 Notes "<要求経験職 187-10>\r\n<転職アイテム 626>\r\n<職業ランク 3>"
Class 189
 Name "Vampire Shinobi"
 Notes "<要求経験職 184-10>\r\n<転職アイテム 603>\r\n<職業ランク 2>"
Class 190
 Name "Nightmare Kunoichi"
 Notes "<要求経験職 189-10>\r\n<転職アイテム 625>\r\n<職業ランク 3>"
Class 192
 Name "Queen Vampire"
 Notes "<要求経験職 186-10,188-10,190-10>\r\n<転職アイテム 645>\r\n<職業ランク 3>\r\n<通常攻撃強化 1-20>\r\n<武器スキル倍率強化 1-6-20>"
Class 193
 Name "***ダミー"
Class 194
 Name "Mermaid"
 Notes "<職業ランク 1>\r\n<海地形強化>\r\n<属性強化 38-50>"
Class 195
 Name "High Mermaid"
 Notes "<要求経験職 194-10>\r\n<職業ランク 2>\r\n<海地形強化>\r\n<属性強化 38-50>"
Class 196
 Name "Lorelei"
 Notes "<要求経験職 195-10>\r\n<転職アイテム 626>\r\n<職業ランク 3>\r\n<海地形超強化>\r\n<属性強化 38-50>"
Class 197
 Name "Pirate Mermaid"
 Notes "<要求経験職 194-10>\r\n<転職アイテム 608>\r\n<職業ランク 2>\r\n<TP消費率 75%>\r\n<海地形強化>"
Class 198
 Name "Pirate King Lorelei"
 Notes "<要求経験職 197-10>\r\n<転職アイテム 633>\r\n<職業ランク 3>\r\n<TP消費率 50%>\r\n<海地形超強化>"
Class 199
 Name "Mermaid Merchant"
 Notes "<要求経験職 194-10>\r\n<転職アイテム 601>\r\n<職業ランク 2>\r\n<獲得金額倍率 200%>\r\n<海地形強化>"
Class 200
 Name "Shipping Magnate Lorelei"
 Notes "<要求経験職 199-10>\r\n<転職アイテム 636>\r\n<職業ランク 3>\r\n<獲得金額倍率 300%>\r\n<海地形超強化>"
Class 201
 Name "Queen Mermaid"
 Notes "<要求経験職 196-10,198-10,200-10>\r\n<転職アイテム 646>\r\n<職業ランク 3>\r\n<海地形超強化>\r\n<属性強化 38-50>"
Class 202
 Name "***ダミー"
Class 203
 Name "Elf"
 Notes "<職業ランク 1>\r\n<森地形強化>\r\n<属性強化 11-100,12-100,13-100,14-100,15-100,16-100,17-100,18-100,19-100,20-100,21-100,22-100,23-100,24-100,25-100,26-100,27-100,28-100,29-100,30-100,31-100,32-100,33-100,34-100,37-100>"
Class 204
 Name "High Elf"
 Notes "<要求経験職 203-10>\r\n<職業ランク 2>\r\n<森地形強化>\r\n<属性強化 11-100,12-100,13-100,14-100,15-100,16-100,17-100,18-100,19-100,20-100,21-100,22-100,23-100,24-100,25-100,26-100,27-100,28-100,29-100,30-100,31-100,32-100,33-100,34-100,37-100>"
Class 205
 Name "Master Elf"
 Notes "<要求経験職 204-10>\r\n<転職アイテム 627>\r\n<職業ランク 3>\r\n<森地形強化>\r\n<属性強化 11-100,12-100,13-100,14-100,15-100,16-100,17-100,18-100,19-100,20-100,21-100,22-100,23-100,24-100,25-100,26-100,27-100,28-100,29-100,30-100,31-100,32-100,33-100,34-100,37-100>"
Class 206
 Name "Forest Elf"
 Notes "<要求経験職 203-10>\r\n<職業ランク 2>\r\n<タイル補正 1-40>\r\n<森地形超強化>"
Class 207
 Name "Wonder Elf"
 Notes "<要求経験職 206-10>\r\n<転職アイテム 626>\r\n<職業ランク 3>\r\n<タイル補正 1-40>\r\n<森地形超強化>"
Class 208
 Name "Dark Elf"
 Notes "<要求経験職 203-10>\r\n<職業ランク 2>\r\n<森地形強化>"
Class 209
 Name "Arc Elf"
 Notes "<要求経験職 208-10>\r\n<転職アイテム 636>\r\n<職業ランク 3>\r\n<森地形強化>"
Class 210
 Name "Dullahan"
 Notes "<要求経験職 1-10,203-10>\r\n<職業ランク 2>"
Class 211
 Name "Dullahan Lord"
 Notes "<要求経験職 210-10>\r\n<転職アイテム 622>\r\n<職業ランク 3>"
Class 212
 Name "Queen Elf"
 Notes "<要求経験職 205-10,207-10>\r\n<選択経験職 209-10,211-10>\r\n<転職アイテム 647>\r\n<職業ランク 3>\r\n<森地形超強化>\r\n<属性強化 11-100,12-100,13-100,14-100,15-100,16-100,17-100,18-100,19-100,20-100,21-100,22-100,23-100,24-100,25-100,26-100,27-100,28-100,29-100,30-100,31-100,32-100,33-100,34-100,37-100>"
Class 213
 Name "***ダミー"
Class 214
 Name "Fairy"
 Notes "<職業ランク 1>\r\n<スロットチャンス 1>"
Class 215
 Name "Wind Sprite"
 Notes "<要求経験職 214-10>\r\n<職業ランク 2>\r\n<スロットチャンス 1>"
Class 216
 Name "Wind Spirit"
 Notes "<要求経験職 215-10>\r\n<転職アイテム 626>\r\n<職業ランク 3>\r\n<スロットチャンス 1>"
Class 217
 Name "Earth Sprite"
 Notes "<要求経験職 214-10>\r\n<職業ランク 2>\r\n<開始時TP 75%>"
Class 218
 Name "Earth Spirit"
 Notes "<要求経験職 217-10>\r\n<転職アイテム 624>\r\n<職業ランク 3>\r\n<開始時TP 100%>"
Class 219
 Name "Dark Fairy"
 Notes "<要求経験職 214-10>\r\n<職業ランク 2>\r\n<獲得アイテム倍率 200%>\r\n<スロットチャンス 2>"
Class 220
 Name "Arc Fairy"
 Notes "<要求経験職 219-10>\r\n<転職アイテム 636>\r\n<職業ランク 3>\r\n<獲得アイテム倍率 300%>\r\n<スロットチャンス 3>"
Class 221
 Name "Queen Fairy"
 Notes "<要求経験職 216-10,218-10,220-10>\r\n<転職アイテム 648>\r\n<職業ランク 3>\r\n<獲得アイテム倍率 300%>\r\n<スロットチャンス 3>"
Class 222
 Name "***ダミー"
Class 223
 Name "Slime"
 Notes "<職業ランク 1>\r\n<通常攻撃強化 21-20>\r\n<武器スキル倍率強化 21-16-20>"
Class 224
 Name "Mega Slime"
 Notes "<要求経験職 223-10>\r\n<職業ランク 2>\r\n<通常攻撃強化 21-20>\r\n<武器スキル倍率強化 21-16-20>"
Class 225
 Name "Giga Slime"
 Notes "<要求経験職 224-10>\r\n<転職アイテム 627>\r\n<職業ランク 3>\r\n<通常攻撃強化 21-20>\r\n<武器スキル倍率強化 21-16-20>"
Class 226
 Name "Heal Slime"
 Notes "<要求経験職 223-10>\r\n<職業ランク 2>\r\n<通常攻撃強化 21-20>\r\n<武器スキル倍率強化 21-16-20>"
Class 227
 Name "Purifying Slime"
 Notes "<要求経験職 226-10>\r\n<転職アイテム 626>\r\n<職業ランク 3>\r\n<通常攻撃強化 21-20>\r\n<武器スキル倍率強化 21-16-20>"
Class 228
 Name "Carnivorous Slime"
 Notes "<要求経験職 223-10>\r\n<職業ランク 2>\r\n<通常攻撃強化 21-20>\r\n<武器スキル倍率強化 21-16-20>"
Class 229
 Name "Malicious Slime"
 Notes "<要求経験職 228-10>\r\n<転職アイテム 624>\r\n<職業ランク 3>\r\n<通常攻撃強化 21-20>\r\n<武器スキル倍率強化 21-16-20>"
Class 230
 Name "***ダミー"
Class 231
 Name "***ダミー"
Class 232
 Name "Beast"
 Notes "<職業ランク 1>\r\n<通常攻撃強化 12-20>\r\n<武器スキル倍率強化 12-53-20>"
Class 233
 Name "Lunatic Beast"
 Notes "<要求経験職 232-10>\r\n<職業ランク 2>\r\n<通常攻撃強化 12-20>\r\n<武器スキル倍率強化 12-53-20>"
Class 234
 Name "Blood-Crazed Beast"
 Notes "<要求経験職 233-10>\r\n<転職アイテム 624>\r\n<職業ランク 3>\r\n<戦闘開始時発動 32,50%>\r\n<武器マスタリー 12-200>\r\n<通常攻撃強化 12-20>\r\n<武器スキル倍率強化 12-53-20>"
Class 235
 Name "Speed Beast"
 Notes "<要求経験職 232-10>\r\n<職業ランク 2>\r\n<通常攻撃強化 12-20>\r\n<武器スキル倍率強化 12-53-20>"
Class 236
 Name "Sonic Beast"
 Notes "<要求経験職 235-10>\r\n<転職アイテム 625>\r\n<職業ランク 3>\r\n<武器マスタリー 12-200>\r\n<通常攻撃強化 12-20>\r\n<武器スキル倍率強化 12-53-20>"
Class 237
 Name "Minotaur"
 Notes "<要求経験職 1-10,232-10>\r\n<転職アイテム 604>\r\n<職業ランク 2>"
Class 238
 Name "Giga Minotaur"
 Notes "<要求経験職 237-10>\r\n<転職アイテム 624>\r\n<職業ランク 3>"
Class 239
 Name "Centaur"
 Notes "<要求経験職 1-10,232-10>\r\n<職業ランク 2>"
Class 240
 Name "Grand Centaur"
 Notes "<要求経験職 239-10>\r\n<転職アイテム 625>\r\n<職業ランク 3>"
Class 241
 Name "Nekomata"
 Notes "<要求経験職 22-10,232-10>\r\n<転職アイテム 639>\r\n<職業ランク 2>\r\n<通常攻撃強化 12-20>\r\n<武器スキル倍率強化 12-53-20>"
Class 242
 Name "Martial God Cat"
 Notes "<要求経験職 241-10>\r\n<転職アイテム 623>\r\n<職業ランク 3>\r\n<通常攻撃強化 12-20>\r\n<武器スキル倍率強化 12-53-20>\r\n<武器マスタリー 12-200>"
Class 243
 Name "***ダミー"
Class 244
 Name "***ダミー"
Class 245
 Name "Kitsune"
 Notes "<職業ランク 1>\r\n<通常攻撃強化 23-20>\r\n<武器スキル倍率強化 23-18-20>"
Class 246
 Name "Mid-Rank Kitsune"
 Notes "<要求経験職 245-10>\r\n<職業ランク 2>\r\n<通常攻撃強化 23-20>\r\n<武器スキル倍率強化 23-18-20>"
Class 247
 Name "High-Rank Kitsune"
 Notes "<要求経験職 246-10>\r\n<転職アイテム 626>\r\n<職業ランク 3>\r\n<通常攻撃強化 23-20>\r\n<武器スキル倍率強化 23-18-20>"
Class 248
 Name "Bestial Kitsune"
 Notes "<要求経験職 245-10>\r\n<職業ランク 2>\r\n<トリガーステート H,0,20%,30>\r\n<トリガーステート H,0,20%,33>\r\n<トリガーステート H,0,20%,36>\r\n<トリガーステート H,0,20%,39>\r\n<通常攻撃強化 12-20>\r\n<武器スキル倍率強化 12-53-20>"
Class 249
 Name "Feral Kitsune"
 Notes "<要求経験職 248-10>\r\n<転職アイテム 624>\r\n<職業ランク 3>\r\n<トリガーステート H,0,20%,31>\r\n<トリガーステート H,0,20%,34>\r\n<トリガーステート H,0,20%,37>\r\n<トリガーステート H,0,20%,40>\r\n<通常攻撃強化 12-20>\r\n<武器スキル倍率強化 12-53-20>"
Class 250
 Name "Kitsune Geisha"
 Notes "<要求経験職 245-10>\r\n<職業ランク 2>\r\n<通常攻撃強化 23-20>\r\n<武器スキル倍率強化 23-18-20>"
Class 251
 Name "Kitsune Courtesan"
 Notes "<要求経験職 250-10>\r\n<転職アイテム 632>\r\n<職業ランク 3>\r\n<通常攻撃強化 23-20>\r\n<武器スキル倍率強化 23-18-20>"
Class 252
 Name "***ダミー"
Class 253
 Name "***ダミー"
Class 254
 Name "Lamia"
 Notes "<職業ランク 1>\r\n<通常攻撃強化 22-20>\r\n<武器スキル倍率強化 22-17-20>"
Class 255
 Name "Boa Lamia"
 Notes "<要求経験職 254-10>\r\n<職業ランク 2>\r\n<通常攻撃強化 22-20>\r\n<武器スキル倍率強化 22-17-20>"
Class 256
 Name "Nightmare Lamia"
 Notes "<要求経験職 255-10>\r\n<転職アイテム 624>\r\n<職業ランク 3>\r\n<通常攻撃強化 22-20>\r\n<武器スキル倍率強化 22-17-20>"
Class 257
 Name "Lamia Nun"
 Notes "<要求経験職 254-10>\r\n<職業ランク 2>\r\n<通常攻撃強化 22-20>\r\n<武器スキル倍率強化 22-17-20>"
Class 258
 Name "Lamia Saint"
 Notes "<要求経験職 257-10>\r\n<転職アイテム 626>\r\n<職業ランク 3>\r\n<通常攻撃強化 22-20>\r\n<武器スキル倍率強化 22-17-20>"
Class 259
 Name "Snake Miko"
 Notes "<要求経験職 254-10>\r\n<職業ランク 2>\r\n<通常攻撃強化 22-20>\r\n<武器スキル倍率強化 22-17-20>"
Class 260
 Name "White Snake Kagura"
 Notes "<要求経験職 259-10>\r\n<転職アイテム 632>\r\n<職業ランク 3>\r\n<通常攻撃強化 22-20>\r\n<武器スキル倍率強化 22-17-20>"
Class 261
 Name "Medusa"
 Notes "<要求経験職 33-10,254-10>\r\n<職業ランク 2>\r\n<通常攻撃強化 22-20>\r\n<武器スキル倍率強化 22-17-20>"
Class 262
 Name "Medusa Lord"
 Notes "<要求経験職 261-10>\r\n<転職アイテム 627>\r\n<職業ランク 3>\r\n<通常攻撃強化 22-20>\r\n<武器スキル倍率強化 22-17-20>"
Class 263
 Name "Queen Lamia"
 Notes "<要求経験職 258-10,260-10>\r\n<選択経験職 256-10,262-10>\r\n<転職アイテム 652>\r\n<職業ランク 3>\r\n<通常攻撃強化 22-20>\r\n<武器スキル倍率強化 22-17-20>"
Class 264
 Name "***ダミー"
Class 265
 Name "Scylla"
 Notes "<職業ランク 1>\r\n<通常攻撃強化 19-20>\r\n<武器スキル倍率強化 19-15-20>"
Class 266
 Name "High Scylla"
 Notes "<要求経験職 265-10>\r\n<職業ランク 2>\r\n<連続発動タイプ 55-2>\r\n<通常攻撃強化 19-20>\r\n<武器スキル倍率強化 19-15-20>"
Class 267
 Name "Elder Scylla"
 Notes "<要求経験職 266-10>\r\n<転職アイテム 627>\r\n<職業ランク 3>\r\n<連続発動タイプ 55-2>\r\n<通常攻撃強化 19-20>\r\n<武器スキル倍率強化 19-15-20>"
Class 268
 Name "Scylla Samurai"
 Notes "<要求経験職 265-10>\r\n<転職アイテム 603>\r\n<職業ランク 2>"
Class 269
 Name "Peerless Scylla Samurai"
 Notes "<要求経験職 268-10>\r\n<転職アイテム 622>\r\n<職業ランク 3>"
Class 270
 Name "Scylla Maid"
 Notes "<要求経験職 265-10>\r\n<転職アイテム 618>\r\n<職業ランク 2>"
Class 271
 Name "Scylla Servant"
 Notes "<要求経験職 270-10>\r\n<転職アイテム 637>\r\n<職業ランク 3>"
Class 272
 Name "Queen Scylla"
 Notes "<要求経験職 267-10,269-10,271-10>\r\n<転職アイテム 653>\r\n<職業ランク 3>\r\n<通常攻撃 3>\r\n<連続発動タイプ 55-3>\r\n<通常攻撃強化 19-20>\r\n<武器スキル倍率強化 19-15-20>"
Class 273
 Name "***ダミー"
Class 274
 Name "Harpy"
 Notes "<職業ランク 1>\r\n<通常攻撃強化 23-20>\r\n<武器スキル倍率強化 23-18-20>"
Class 275
 Name "Wing Harpy"
 Notes "<要求経験職 274-10>\r\n<職業ランク 2>\r\n<通常攻撃強化 23-20>\r\n<武器スキル倍率強化 23-18-20>"
Class 276
 Name "Elder Harpy"
 Notes "<要求経験職 275-10>\r\n<転職アイテム 625>\r\n<職業ランク 3>\r\n<通常攻撃強化 23-20>\r\n<武器スキル倍率強化 23-18-20>"
Class 277
 Name "Harpy Knight"
 Notes "<要求経験職 274-10>\r\n<職業ランク 2>"
Class 278
 Name "Sky Knight"
 Notes "<要求経験職 277-10>\r\n<転職アイテム 622>\r\n<職業ランク 3>"
Class 279
 Name "Avis"
 Notes "<要求経験職 274-10>\r\n<職業ランク 2>\r\n<通常攻撃強化 12-20>\r\n<武器スキル倍率強化 12-53-20>"
Class 280
 Name "Garuda"
 Notes "<要求経験職 279-10>\r\n<転職アイテム 627>\r\n<職業ランク 3>\r\n<通常攻撃強化 12-20>\r\n<武器スキル倍率強化 12-53-20>"
Class 281
 Name "Queen Harpy"
 Notes "<要求経験職 276-10,278-10,280-10>\r\n<転職アイテム 654>\r\n<職業ランク 3>\r\n<通常攻撃強化 23-20>\r\n<武器スキル倍率強化 23-18-20>"
Class 282
 Name "***ダミー"
Class 283
 Name "Dragon"
 Notes "<職業ランク 1>\r\n<通常攻撃強化 12-20>\r\n<武器スキル倍率強化 12-53-20>"
Class 284
 Name "Dragonkin"
 Notes "<要求経験職 283-10>\r\n<職業ランク 2>"
Class 285
 Name "Dragon Conqueror"
 Notes "<要求経験職 284-10>\r\n<転職アイテム 622>\r\n<職業ランク 3>"
Class 286
 Name "Divine Dragon"
 Notes "<要求経験職 284-10>\r\n<転職アイテム 626>\r\n<職業ランク 3>"
Class 287
 Name "Wyvern"
 Notes "<要求経験職 283-10>\r\n<職業ランク 2>\r\n<通常攻撃強化 12-20>\r\n<武器スキル倍率強化 12-53-20>"
Class 288
 Name "Bahamut"
 Notes "<要求経験職 287-10>\r\n<転職アイテム 625>\r\n<職業ランク 3>\r\n<武器マスタリー 12-200>\r\n<通常攻撃強化 12-20>\r\n<武器スキル倍率強化 12-53-20>"
Class 289
 Name "Sea Dragon"
 Notes "<要求経験職 283-10>\r\n<職業ランク 2>\r\n<海地形強化>\r\n<通常攻撃強化 12-20>\r\n<武器スキル倍率強化 12-53-20>"
Class 290
 Name "Leviathan"
 Notes "<要求経験職 289-10>\r\n<転職アイテム 627>\r\n<職業ランク 3>\r\n<海地形超強化>\r\n<武器マスタリー 12-200>\r\n<通常攻撃強化 12-20>\r\n<武器スキル倍率強化 12-53-20>"
Class 291
 Name "***ダミー"
Class 292
 Name "***ダミー"
Class 293
 Name "Land-Dweller"
 Notes "<職業ランク 1>"
Class 294
 Name "High Land-Dweller"
 Notes "<要求経験職 293-10>\r\n<職業ランク 2>"
Class 295
 Name "Evil Species"
 Notes "<要求経験職 294-10>\r\n<転職アイテム 625>\r\n<職業ランク 3>"
Class 296
 Name "Leech"
 Notes "<要求経験職 293-10>\r\n<職業ランク 2>\r\n<無効化障壁 100>"
Class 297
 Name "High Creature"
 Notes "<要求経験職 296-10>\r\n<転職アイテム 624>\r\n<職業ランク 3>\r\n<無効化障壁 300>"
Class 298
 Name "Monster Hunter"
 Notes "<要求経験職 293-10>\r\n<職業ランク 2>\r\n<踏みとどまり 30%>\r\n<属性強化 11-100,12-100,13-100,14-100,15-100,16-100,17-100,18-100,19-100,20-100,21-100,22-100,23-100,24-100,25-100,26-100,27-100,28-100,29-100,30-100,31-100,32-100,33-100,34-100,37-100>"
Class 299
 Name "Giant Slayer"
 Notes "<要求経験職 298-10>\r\n<転職アイテム 627>\r\n<職業ランク 3>\r\n<踏みとどまり 20%>\r\n<属性強化 11-100,12-100,13-100,14-100,15-100,16-100,17-100,18-100,19-100,20-100,21-100,22-100,23-100,24-100,25-100,26-100,27-100,28-100,29-100,30-100,31-100,32-100,33-100,34-100,37-100>"
Class 300
 Name "***ダミー"
Class 301
 Name "Sea-Dweller"
 Notes "<職業ランク 1>\r\n<海地形強化>"
Class 302
 Name "Sea Leech"
 Notes "<要求経験職 301-10>\r\n<職業ランク 2>\r\n<海地形強化>"
Class 303
 Name "Marine Princess"
 Notes "<要求経験職 302-10>\r\n<転職アイテム 627>\r\n<職業ランク 3>\r\n<海地形超強化>"
Class 304
 Name "Deep Sea Leech"
 Notes "<要求経験職 301-10>\r\n<職業ランク 2>\r\n<海地形強化>\r\n<深海地形強化>"
Class 305
 Name "Abyss Lord"
 Notes "<要求経験職 304-10>\r\n<転職アイテム 624>\r\n<職業ランク 3>\r\n<海地形超強化>\r\n<深海地形超強化>"
Class 306
 Name "Sea Palace Maiko"
 Notes "<要求経験職 301-10>\r\n<職業ランク 2>\r\n<海地形強化>\r\n<通常攻撃強化 23-20>\r\n<武器スキル倍率強化 23-18-20>"
Class 307
 Name "Sea Palace Princess"
 Notes "<要求経験職 306-10>\r\n<転職アイテム 632>\r\n<職業ランク 3>\r\n<海地形超強化>\r\n<通常攻撃強化 23-20>\r\n<武器スキル倍率強化 23-18-20>"
Class 308
 Name "***ダミー"
Class 309
 Name "Insect"
 Notes "<職業ランク 1>\r\n<砂漠地形強化>"
Class 310
 Name "Dark Insect"
 Notes "<要求経験職 309-10>\r\n<職業ランク 2>\r\n<砂漠地形強化>"
Class 311
 Name "Underworld Insect"
 Notes "<要求経験職 310-10>\r\n<職業ランク 3>\r\n<転職アイテム 627>\r\n<砂漠地形超強化>"
Class 312
 Name "Legion"
 Notes "<要求経験職 309-10>\r\n<職業ランク 2>\r\n<砂漠地形強化>"
Class 313
 Name "Legion Mother"
 Notes "<要求経験職 312-10>\r\n<転職アイテム 623>\r\n<職業ランク 3>\r\n<砂漠地形強化>"
Class 314
 Name "Arachne"
 Notes "<要求経験職 33-10,309-10>\r\n<職業ランク 2>"
Class 315
 Name "Atlach-Nacha"
 Notes "<要求経験職 314-10>\r\n<転職アイテム 626>\r\n<職業ランク 3>"
Class 317
 Name "Queen Insect"
 Notes "<要求経験職 311-10,313-10,315-10>\r\n<転職アイテム 655>\r\n<職業ランク 3>\r\n<砂漠地形超強化>"
Class 318
 Name "***ダミー"
Class 319
 Name "Alraune"
 Notes "<職業ランク 1>\r\n<通常攻撃強化 19-20>\r\n<武器スキル倍率強化 19-15-20>"
Class 320
 Name "High Alraune"
 Notes "<要求経験職 319-10>\r\n<職業ランク 2>\r\n<通常攻撃強化 19-20>\r\n<武器スキル倍率強化 19-15-20>\r\n<属性強化 38-50>"
Class 321
 Name "Alraune Saint"
 Notes "<要求経験職 320-10>\r\n<転職アイテム 626>\r\n<職業ランク 3>\r\n<通常攻撃強化 19-20>\r\n<武器スキル倍率強化 19-15-20>\r\n<属性強化 38-50>"
Class 322
 Name "War Alraune"
 Notes "<要求経験職 319-10>\r\n<職業ランク 2>\r\n<通常攻撃強化 19-20>\r\n<武器スキル倍率強化 19-15-20>\r\n<ステート割合強化タイプ 58-50>"
Class 323
 Name "Flower of Nirvana"
 Notes "<要求経験職 322-10>\r\n<転職アイテム 626>\r\n<職業ランク 3>\r\n<通常攻撃強化 19-20>\r\n<武器スキル倍率強化 19-15-20>\r\n<ステート割合強化タイプ 58-50>"
Class 324
 Name "Carnivorous Flower"
 Notes "<要求経験職 319-10>\r\n<職業ランク 2>\r\n<通常攻撃強化 19-20>\r\n<武器スキル倍率強化 19-15-20>"
Class 325
 Name "Venus Nepenthes"
 Notes "<要求経験職 324-10>\r\n<転職アイテム 627>\r\n<職業ランク 3>\r\n<通常攻撃強化 19-20>\r\n<武器スキル倍率強化 19-15-20>"
Class 326
 Name "Queen Alraune"
 Notes "<要求経験職 321-10,323-10,325-10>\r\n<転職アイテム 656>\r\n<職業ランク 3>\r\n<通常攻撃強化 19-20>\r\n<武器スキル倍率強化 19-15-20>\r\n<属性強化 38-50>\r\n<ステート割合強化タイプ 58-50>"
Class 327
 Name "***ダミー"
Class 328
 Name "Zombie"
 Notes "<職業ランク 1>"
Class 329
 Name "High Undead"
 Notes "<要求経験職 328-10>\r\n<職業ランク 2>"
Class 330
 Name "Master Undead"
 Notes "<要求経験職 329-10>\r\n<転職アイテム 624>\r\n<職業ランク 3>"
Class 331
 Name "Mummy"
 Notes "<要求経験職 328-10>\r\n<職業ランク 2>"
Class 332
 Name "Isis"
 Notes "<要求経験職 331-10>\r\n<転職アイテム 626>\r\n<職業ランク 3>"
Class 333
 Name "Zombie Doctor"
 Notes "<要求経験職 328-10>\r\n<転職アイテム 612,617>\r\n<職業ランク 2>"
Class 334
 Name "Death Professor"
 Notes "<要求経験職 333-10>\r\n<転職アイテム 631>\r\n<職業ランク 3>"
Class 335
 Name "***ダミー"
Class 336
 Name "Ghost"
 Notes "<職業ランク 1>\r\n<通常攻撃強化 15-20>\r\n<武器スキル倍率強化 15-13-20>\r\n<拡張魔法反射率 10%>"
Class 337
 Name "Evil Mist"
 Notes "<要求経験職 336-10>\r\n<職業ランク 2>\r\n<通常攻撃強化 15-20>\r\n<武器スキル倍率強化 15-13-20>\r\n<拡張魔法反射率 30%>"
Class 338
 Name "Master Shadow"
 Notes "<要求経験職 337-10>\r\n<転職アイテム 626>\r\n<職業ランク 3>\r\n<通常攻撃強化 15-20>\r\n<武器スキル倍率強化 15-13-20>\r\n<拡張魔法反射率 50%>"
Class 339
 Name "Grimoire"
 Notes "<要求経験職 336-10>\r\n<職業ランク 2>"
Class 340
 Name "Page Lord"
 Notes "<要求経験職 339-10>\r\n<転職アイテム 631>\r\n<職業ランク 3>"
Class 341
 Name "Mimic"
 Notes "<要求経験職 336-10>\r\n<職業ランク 2>\r\n<戦闘開始時発動 34,100%>\r\n<洞窟地形強化>"
Class 342
 Name "Pandora"
 Notes "<要求経験職 341-10>\r\n<転職アイテム 627>\r\n<職業ランク 3>\r\n<戦闘開始時発動 34,100%>\r\n<洞窟地形超強化>"
Class 343
 Name "***ダミー"
Class 344
 Name "Doll"
 Notes "<職業ランク 1>"
Class 345
 Name "Evilmaton"
 Notes "<要求経験職 344-10>\r\n<職業ランク 2>"
Class 346
 Name "Force Doll"
 Notes "<要求経験職 345-10>\r\n<転職アイテム 627>\r\n<職業ランク 3>"
Class 347
 Name "Vocaloid"
 Notes "<要求経験職 344-10>\r\n<職業ランク 2>"
Class 348
 Name "Academy Doll"
 Notes "<要求経験職 347-10>\r\n<転職アイテム 632>\r\n<職業ランク 3>"
Class 349
 Name "Golem"
 Notes "<要求経験職 344-10>\r\n<転職アイテム 640>\r\n<職業ランク 2>\r\n<踏みとどまり 30%>"
Class 350
 Name "Master Golem"
 Notes "<要求経験職 349-10>\r\n<転職アイテム 624>\r\n<職業ランク 3>\r\n<踏みとどまり 20%>"
Class 351
 Name "Lowly Apoptosis"
 Notes "<要求経験職 344-10>\r\n<転職アイテム 660>\r\n<職業ランク 2>"
Class 352
 Name "High Apoptosis"
 Notes "<要求経験職 351-10>\r\n<転職アイテム 660>\r\n<職業ランク 3>"
Class 353
 Name "***ダミー"
Class 354
 Name "Chimera"
 Notes "<職業ランク 1>"
Class 355
 Name "Tri-Chimera"
 Notes "<要求経験職 354-10>\r\n<職業ランク 2>"
Class 356
 Name "Giga Mutant"
 Notes "<要求経験職 355-10>\r\n<転職アイテム 624>\r\n<職業ランク 3>"
Class 357
 Name "Magical Chimera"
 Notes "<要求経験職 354-10>\r\n<職業ランク 2>"
Class 358
 Name "Force Mutant"
 Notes "<要求経験職 357-10>\r\n<転職アイテム 626>\r\n<職業ランク 3>"
Class 359
 Name "Chimeraroid"
 Notes "<要求経験職 354-10>\r\n<職業ランク 2>"
Class 360
 Name "Machine God"
 Notes "<要求経験職 359-10>\r\n<転職アイテム 629>\r\n<職業ランク 3>"
Class 361
 Name "***ダミー"
Class 362
 Name "Lowly Angel"
 Notes "<職業ランク 1>\r\n<トリガーステート H,0,20%,266>\r\n<トリガーステート H,3,20%,266>"
Class 363
 Name "High Angel"
 Notes "<要求経験職 362-10>\r\n<職業ランク 2>\r\n<トリガーステート H,0,20%,267>\r\n<トリガーステート H,3,20%,267>"
Class 364
 Name "Seraph"
 Notes "<要求経験職 363-10>\r\n<転職アイテム 641>\r\n<職業ランク 3>\r\n<トリガーステート H,0,20%,268>\r\n<トリガーステート H,3,20%,268>"
Class 365
 Name "Fallen Angel"
 Notes "<要求経験職 363-10>\r\n<転職アイテム 642>\r\n<職業ランク 3>\r\n<トリガーステート H,0,20%,268>\r\n<トリガーステート H,3,20%,268>"
Class 366
 Name "Valkyrie"
 Notes "<要求経験職 1-10,362-10>\r\n<職業ランク 2>\r\n<トリガーステート H,0,20%,267>\r\n<トリガーステート H,3,20%,267>"
Class 367
 Name "Valkyrie Lord"
 Notes "<要求経験職 366-10>\r\n<転職アイテム 622>\r\n<職業ランク 3>\r\n<トリガーステート H,0,20%,268>\r\n<トリガーステート H,3,20%,268>"
Class 368
 Name "Cupid"
 Notes "<要求経験職 52-10,362-10>\r\n<職業ランク 2>\r\n<トリガーステート H,0,20%,267>\r\n<トリガーステート H,3,20%,267>"
Class 369
 Name "Cupid of Lust"
 Notes "<要求経験職 368-10>\r\n<転職アイテム 627>\r\n<職業ランク 3>\r\n<トリガーステート H,0,20%,268>\r\n<トリガーステート H,3,20%,268>"
Class 370
 Name "***ダミー"
Class 371
 Name "***ダミー"
Class 372
 Name "***ダミー"
Class 373
 Name "***ダミー"
Class 374
 Name "***ダミー"
Class 381
 Name "成長1"
Class 382
 Name "成長2"
Class 383
 Name "成長3"
Class 384
 Name "成長4"
Class 385
 Name "成長5"
Class 386
 Name "成長6"
Class 387
 Name "成長7"
Class 388
 Name "成長8"
Class 389
 Name "成長9"
Class 390
 Name "成長10"
Class 391
 Name "装備：重装"
Class 392
 Name "装備：中装"
Class 393
 Name "装備：軽装"
Class 394
 Name "装備：魔法中装"
Class 395
 Name "装備：魔法軽装"
Class 396
 Name "装備：万能"
Class 397
 Name "装備：重装・男"
Class 398
 Name "装備：魔法中装・男"
Class 399
 Name "装備：万能・男"
Class 400
 Name "装備：軽装・男"
Class 401
 Name "ルカ"
Class 402
 Name "ルカ"
Class 403
 Name "ルカ"
Class 404
 Name "ルカ"
Class 405
 Name "アリス"
Class 406
 Name "アリス"
Class 412
 Name "シルフ"
Class 413
 Name "ノーム"
Class 414
 Name "ウンディーネ"
Class 415
 Name "サラマンダー"
Class 419
 Name "アルマエルマ"
Class 420
 Name "アルマエルマ"
Class 421
 Name "アルマエルマ"
Class 426
 Name "イリアス"
Class 427
 Name "イリアス"
Class 428
 Name "イリアス"
Class 434
 Name "ミカエラ"
Class 435
 Name "ミカエラ"
Class 436
 Name "ルシフィナ"
Class 437
 Name "ルシフィナ"
Class 441
 Name "プロメスティン"
Class 442
 Name "プロメスティン"
Class 443
 Name "プロメスティン"
Class 444
 Name "プロメスティン"
Class 445
 Name "アリストロメリア"
Class 446
 Name "黒のアリス"
Class 447
 Name "黒のアリス"
Class 448
 Name "黒のアリス"
Class 449
 Name "黒のアリス"
Class 450
 Name "黒のアリス"
Class 453
 Name "スライム娘"
Class 454
 Name "バニースライム"
Class 455
 Name "ナメクジ娘"
Class 456
 Name "インプ1"
Class 457
 Name "インプ2"
Class 458
 Name "インプ3"
Class 459
 Name "マンドラゴラ娘"
Class 460
 Name "犬娘"
Class 461
 Name "ミミズ娘"
Class 462
 Name "ゴブリン娘"
Class 463
 Name "ゴブリン娘"
Class 464
 Name "プチラミア"
Class 465
 Name "プチラミア"
Class 466
 Name "ヴァンパイアガール"
Class 467
 Name "ヴァンパイアガール"
Class 468
 Name "ドラゴンパピー"
Class 469
 Name "ドラゴンパピー"
Class 470
 Name "ネズミ娘"
Class 471
 Name "狼娘"
Class 472
 Name "フェニックス娘"
Class 473
 Name "ヒル娘"
Class 474
 Name "ウサギ娘"
Class 475
 Name "羊娘"
Class 476
 Name "シュリー"
Class 477
 Name "ジェイド"
Class 478
 Name "シェスタ"
Class 479
 Name "ヌルコ"
Class 480
 Name "オーク娘"
Class 481
 Name "ミツバチ娘"
Class 482
 Name "スズメ娘"
Class 483
 Name "ハーピー"
Class 484
 Name "ハーピーツインズ"
Class 485
 Name "ハイスラッグ娘"
Class 486
 Name "なめくじシスター"
Class 487
 Name "スラグスターズ"
Class 488
 Name "ジャックオーランタン"
Class 489
 Name "ローパー娘"
Class 490
 Name "メーダ娘"
Class 491
 Name "キャンドル娘"
Class 492
 Name "イーター"
Class 493
 Name "ライオット"
Class 494
 Name "ルクスル"
Class 495
 Name "ダークエルフ剣"
Class 496
 Name "ダークエルフ召喚"
Class 497
 Name "フェアリー"
Class 498
 Name "ロリカニ娘"
Class 499
 Name "ナマズ娘"
Class 500
 Name "ラフレシア娘"
Class 501
 Name "セントール"
Class 502
 Name "銀狐二尾"
Class 503
 Name "かむろ二尾"
Class 504
 Name "クモ娘"
Class 505
 Name "ミミック娘"
Class 506
 Name "七尾"
Class 507
 Name "ナマコ娘"
Class 508
 Name "貝娘"
Class 509
 Name "カニ娘"
Class 510
 Name "スライムベス娘"
Class 511
 Name "スイカ娘"
Class 512
 Name "ウツボカズラ娘"
Class 513
 Name "ラミア"
Class 514
 Name "ワカメ娘"
Class 515
 Name "クラゲ娘"
Class 516
 Name "イソギンチャク娘"
Class 517
 Name "アンコウ娘"
Class 518
 Name "メイア"
Class 519
 Name "17ページ"
Class 520
 Name "257ページ"
Class 521
 Name "65537ページ"
Class 522
 Name "シスターラミア"
Class 523
 Name "シスキュバス"
Class 524
 Name "アリクイ娘"
Class 525
 Name "グリズリー娘"
Class 526
 Name "実験体XX-7"
Class 527
 Name "リトルバグ"
Class 528
 Name "カニロイド"
Class 529
 Name "ブリュンヒルデ"
Class 530
 Name "ゴースト"
Class 531
 Name "呪いの人形娘"
Class 532
 Name "ゾンビ剣士"
Class 533
 Name "ゾンビ集団"
Class 534
 Name "クロム"
Class 535
 Name "フレデリカ"
Class 536
 Name "エルフ"
Class 537
 Name "ブラウニーズ"
Class 538
 Name "ツインズフェアリー"
Class 539
 Name "フェアリーズ"
Class 540
 Name "タランチュラ娘"
Class 541
 Name "ミノタウロス娘"
Class 542
 Name "バンダースナッチ娘"
Class 543
 Name "エヴァ"
Class 544
 Name "サボレス"
Class 545
 Name "ムカデ娘"
Class 546
 Name "サソリ娘"
Class 547
 Name "サボテン娘"
Class 548
 Name "ダチョウ娘"
Class 549
 Name "ランプの魔女"
Class 550
 Name "ミイラ娘"
Class 551
 Name "コブラ娘"
Class 552
 Name "ネフェルラミアス"
Class 553
 Name "スフィンクス"
Class 554
 Name "ワニ娘"
Class 555
 Name "サキ"
Class 556
 Name "デビルファイター"
Class 557
 Name "土蜘蛛"
Class 558
 Name "サックボア"
Class 559
 Name "アイアンメイデン"
Class 560
 Name "ワームビレッジャ"
Class 561
 Name "ウーストレル"
Class 562
 Name "ツボ娘"
Class 563
 Name "リリィ"
Class 564
 Name "小鬼"
Class 565
 Name "オナホ娘"
Class 566
 Name "ナーキュバス"
Class 567
 Name "ルシア"
Class 568
 Name "百々目鬼"
Class 569
 Name "リザードシーフ"
Class 570
 Name "リザードソルジャー"
Class 571
 Name "リザードボス"
Class 572
 Name "蜃気楼娘"
Class 573
 Name "アリジゴク娘"
Class 574
 Name "サンドワーム娘"
Class 575
 Name "デザートスキュラ"
Class 576
 Name "ヴィタエ"
Class 577
 Name "ヴェータラ"
Class 578
 Name "ヴァルト"
Class 579
 Name "シニファ"
Class 580
 Name "シャドー"
Class 581
 Name "ガイストビーネ"
Class 582
 Name "キメラホムンクルス"
Class 583
 Name "アイアンメイデン改"
Class 584
 Name "ジャンクドール娘"
Class 585
 Name "ラディオ"
Class 591
 Name "きのこ娘"
Class 592
 Name "ノビスタドール娘"
Class 593
 Name "ウルスキュラ"
Class 594
 Name "襖"
Class 595
 Name "マーメイド"
Class 596
 Name "商人マーメイド"
Class 597
 Name "海賊マーメイド"
Class 598
 Name "一反木綿娘"
Class 599
 Name "ダゴン娘"
Class 600
 Name "人魂娘"
Class 601
 Name "アシェル"
Class 602
 Name "ボニー"
Class 603
 Name "たつのこ海兵"
Class 604
 Name "ウミウシ海兵"
Class 605
 Name "リヴァイアサン娘"
Class 606
 Name "カエル娘1"
Class 607
 Name "ケンタウロス娘"
Class 608
 Name "アルラウネ"
Class 609
 Name "御菊蟲"
Class 610
 Name "幽霊娘"
Class 611
 Name "ハコイリ"
Class 612
 Name "デュラハン"
Class 613
 Name "ケルベロス"
Class 614
 Name "濡れ女"
Class 615
 Name "ハイミノタウロス"
Class 616
 Name "ミズタウロス"
Class 617
 Name "ジニタウロス"
Class 618
 Name "牛魔王"
Class 619
 Name "くのいちエルフ"
Class 620
 Name "サムライエルフ"
Class 621
 Name "雪女"
Class 622
 Name "ねこまた"
Class 623
 Name "あかなめ"
Class 624
 Name "河童娘"
Class 625
 Name "二口娘"
Class 626
 Name "白蛇様"
Class 627
 Name "巫女ラミア"
Class 628
 Name "巫女アラクネ"
Class 629
 Name "毛倡妓"
Class 630
 Name "ヤマタノオロチ"
Class 631
 Name "マジカルアゲハ"
Class 632
 Name "マジカルピクシー"
Class 633
 Name "メフィスト"
Class 634
 Name "カマキリ娘"
Class 635
 Name "カイコ娘"
Class 636
 Name "アルラ・アルム"
Class 637
 Name "アルラ・ボア"
Class 638
 Name "ドローシー"
Class 639
 Name "ラフィ"
Class 640
 Name "ディーナ"
Class 641
 Name "アルラ・プリエステス"
Class 642
 Name "アルラ・プリエステス"
Class 643
 Name "モス娘"
Class 644
 Name "スズメバチ娘"
Class 645
 Name "クィーン・ビー"
Class 646
 Name "ジェリー娘"
Class 647
 Name "ブロブ娘"
Class 648
 Name "スライム娘集団"
Class 649
 Name "アリ娘"
Class 650
 Name "オートマータ娘"
Class 651
 Name "パイズリ人形"
Class 652
 Name "スキュラ"
Class 653
 Name "メデューサ"
Class 654
 Name "あげは娘"
Class 655
 Name "ブロム娘"
Class 656
 Name "ウォーマー"
Class 657
 Name "グール"
Class 658
 Name "フェイクジェリー"
Class 659
 Name "ウィングハーピー"
Class 660
 Name "ナイトハーピー"
Class 661
 Name "マッドゴーレム娘"
Class 662
 Name "ゴーレム娘"
Class 663
 Name "ハナビラカマキリ娘"
Class 664
 Name "ブラックゴーレム"
Class 665
 Name "狐獣"
Class 666
 Name "くのいち三尾"
Class 667
 Name "もののふ四尾"
Class 668
 Name "クィーンアント"
Class 669
 Name "溶岩娘"
Class 670
 Name "デーモンラミア"
Class 671
 Name "デーモンスキュラ"
Class 672
 Name "セイレーン"
Class 673
 Name "サンゴ娘"
Class 674
 Name "ヒトデ娘"
Class 675
 Name "ベルゼバブ1"
Class 676
 Name "ベルゼバブ2"
Class 677
 Name "ベルゼバブ3"
Class 678
 Name "アークジェリー"
Class 679
 Name "エルダースキュラ"
Class 680
 Name "ポセイドネス"
Class 681
 Name "サキュバスハーレム"
Class 682
 Name "メイキュバス"
Class 683
 Name "マキュバス"
Class 684
 Name "ミンキュバス"
Class 685
 Name "レンキュバス"
Class 686
 Name "ウィッチサキュバス"
Class 687
 Name "サキュバス"
Class 688
 Name "デーモンサキュバス"
Class 689
 Name "メイドスキュラ"
Class 690
 Name "マダムインセクト"
Class 691
 Name "マダムアンブレラ"
Class 692
 Name "アラディア"
Class 693
 Name "キャンディ"
Class 694
 Name "エミリ"
Class 695
 Name "カサンドラ"
Class 696
 Name "カサンドラ"
Class 697
 Name "バジリスク娘"
Class 698
 Name "ドラゴン娘"
Class 699
 Name "ゼラチナキューブ娘"
Class 700
 Name "妖鬼"
Class 701
 Name "トラ娘"
Class 702
 Name "ヴァンパイア"
Class 703
 Name "ジェライラ"
Class 704
 Name "リボ・リボ"
Class 705
 Name "アンフィル"
Class 706
 Name "ツィンケル"
Class 707
 Name "シーアネモネ"
Class 708
 Name "水龍娘"
Class 709
 Name "マンタ娘"
Class 710
 Name "イッカク娘"
Class 711
 Name "トリックフェアリー"
Class 712
 Name "アマゾネスエルフ"
Class 713
 Name "カーバンクル娘"
Class 714
 Name "ジャイガンティック娘"
Class 715
 Name "クィーンフェアリー"
Class 716
 Name "クィーンエルフ"
Class 717
 Name "フォレストアルラウネ"
Class 718
 Name "フォレストドリアード"
Class 719
 Name "ワルラウネ"
Class 720
 Name "ドリアード"
Class 721
 Name "ドリアード"
Class 722
 Name "クィーンアルラウネ"
Class 723
 Name "クィーンハーピー"
Class 724
 Name "ナイトマーメイド"
Class 725
 Name "ジェネラルマーメイド"
Class 726
 Name "ローレライ"
Class 727
 Name "エル"
Class 728
 Name "クイーンマーメイド"
Class 729
 Name "クラーケン"
Class 730
 Name "アラクネーズ"
Class 731
 Name "あやし土蜘蛛"
Class 732
 Name "アラクネロード"
Class 733
 Name "アトラク＝ナクア"
Class 734
 Name "蜘蛛之皇女"
Class 735
 Name "コンキスタ"
Class 736
 Name "ヴァンデッタ"
Class 737
 Name "エルダーヴァンパイア"
Class 738
 Name "カーミラ"
Class 739
 Name "エリザベート"
Class 740
 Name "クィーンヴァンパイア"
Class 741
 Name "リリス＆リリム"
Class 742
 Name "マスターシャドウ"
Class 743
 Name "煙々羅"
Class 744
 Name "麒麟"
Class 745
 Name "蛇骨女"
Class 746
 Name "ベヒーモス娘"
Class 747
 Name "ワイバーン"
Class 748
 Name "巨竜娘"
Class 749
 Name "モンクサキュバス"
Class 750
 Name "モンクデーモン"
Class 751
 Name "スキュラサーバント"
Class 752
 Name "ヴイーヴル娘"
Class 753
 Name "氷の魔女"
Class 754
 Name "シロクマ娘"
Class 755
 Name "天使兵"
Class 756
 Name "トリニティ"
Class 757
 Name "ウラヌス"
Class 758
 Name "エリシエル"
Class 759
 Name "キューピッド"
Class 760
 Name "ヴァルキリー"
Class 761
 Name "ヘリエル"
Class 762
 Name "アルシエル"
Class 763
 Name "キメラビースト"
Class 764
 Name "実験体Ｓ－２"
Class 765
 Name "実験体Ａ－３"
Class 766
 Name "実験体ＡＤ－５"
Class 767
 Name "実験体Ｑ－５"
Class 768
 Name "フェルナンデス"
Class 769
 Name "フェルナンデス"
Class 770
 Name "タイタニア"
Class 771
 Name "タイタニア"
Class 772
 Name "ロザ"
Class 773
 Name "ロザ"
Class 774
 Name "クィーンラミア"
Class 775
 Name "クィーンラミア"
Class 776
 Name "クィーンハーピー"
Class 777
 Name "クィーンハーピー"
Class 778
 Name "クィーンスキュラ"
Class 779
 Name "クィーンスキュラ"
Class 780
 Name "リリス"
Class 781
 Name "アスタロト"
Class 782
 Name "モリガン"
Class 783
 Name "エデン"
Class 784
 Name "エデン"
Class 785
 Name "エデン"
Class 786
 Name "エデン"
Class 787
 Name "シオン"
Class 788
 Name "グノーシス"
Class 791
 Name "メフィスト"
Class 920
 Name "ラザロ"
Class 922
 Name "マーリン"
Class 925
 Name "ソニア"
Class 929
 Name "サラ"
Class 930
 Name "サラ"
Class 931
 Name "サン・イリア王"
Class 932
 Name "サバサ王"
Class 933
 Name "グランドノア女王"
Class 935
 Name "グランゴルド王"
Class 936
 Name "セレーネ"
Class 938
 Name "ハインリヒ"
Class 939
 Name "ハインリヒ"
Class 940
 Name "アミラ"
Class 941
 Name "ピーハー"
Class 942
 Name "ドーメイア"
Class 943
 Name "さんとす"
Class 944
 Name "マリー"
Class 945
 Name "エリィ"
Class 946
 Name "ステラ"
Class 947
 Name "ドン・ダリア"
Class 948
 Name "バニィちゃん"
Class 949
 Name "ルイズ"
Class 950
 Name "メイリン"
Class 951
 Name "ケイト"
Class 952
 Name "エリッサ"
Class 953
 Name "フィーズ"
Class 954
 Name "ナイチンゲール"
Class 955
 Name "テレサ"
Class 956
 Name "マリア"
Class 957
 Name "ジャスカ"
Class 958
 Name "ナイア"
Class 959
 Name "サラーン"
Class 960
 Name "メロディ"
Class 961
 Name "ウィッチ"
Class 962
 Name "オーラン"
Class 963
 Name "ピラト"
Class 964
 Name "ヨハネ"
Class 965
 Name "サモン"
Class 966
 Name "スカトロ大尉"
Class 967
 Name "パンツ先生"
Class 969
 Name "花京淫"
Class 970
 Name "ジーナ"
Class 971
 Name "ミリオ"
Class 972
 Name "ララ"
Class 973
 Name "ジュリア"
Class 974
 Name "さつき"
Class 975
 Name "弥生"
Class 976
 Name "ルーファ"
Class 977
 Name "マジカルまりんちゃん"
Class 978
 Name "アウグスタ"
Class 979
 Name "マグダ"
Class 980
 Name "アレリア"
Class 981
 Name "オフィリア"
Class 982
 Name "オーロラ"
Class 983
 Name "アリアドネ"
Class 984
 Name "クレスタ"
Class 985
 Name "グロリア"
Class 986
 Name "ショウキ"
Class 1105
 Name "ネロ"
Class 1106
 Name "アルマエルマ"
