﻿
DisplayName "闘技場"



EVENT   1
 PAGE   1
  0()



EVENT   2
 PAGE   1
  0()



EVENT   3
 PAGE   1
  250(bytes(0x04,0x08,0x6f,0x3a,0x0c,0x52,0x50,0x47,0x3a,0x3a,0x53,0x45,0x08,0x3a,0x0a,0x40,0x6e,0x61,0x6d,0x65,0x49,0x22,0x09,0x4d,0x6f,0x76,0x65,0x06,0x3a,0x06,0x45,0x54,0x3a,0x0b,0x40,0x70,0x69,0x74,0x63,0x68,0x69,0x69,0x3a,0x0c,0x40,0x76,0x6f,0x6c,0x75,0x6d,0x65,0x69,0x55))
  TeleportPlayer(0,484,13,31,0,0)
  0()



EVENT   4
 PAGE   1
  250(bytes(0x04,0x08,0x6f,0x3a,0x0c,0x52,0x50,0x47,0x3a,0x3a,0x53,0x45,0x08,0x3a,0x0a,0x40,0x6e,0x61,0x6d,0x65,0x49,0x22,0x09,0x4d,0x6f,0x76,0x65,0x06,0x3a,0x06,0x45,0x54,0x3a,0x0b,0x40,0x70,0x69,0x74,0x63,0x68,0x69,0x69,0x3a,0x0c,0x40,0x76,0x6f,0x6c,0x75,0x6d,0x65,0x69,0x55))
  TeleportPlayer(0,484,13,31,0,0)
  0()



EVENT   5
 PAGE   1
  250(bytes(0x04,0x08,0x6f,0x3a,0x0c,0x52,0x50,0x47,0x3a,0x3a,0x53,0x45,0x08,0x3a,0x0a,0x40,0x6e,0x61,0x6d,0x65,0x49,0x22,0x09,0x4d,0x6f,0x76,0x65,0x06,0x3a,0x06,0x45,0x54,0x3a,0x0b,0x40,0x70,0x69,0x74,0x63,0x68,0x69,0x69,0x3a,0x0c,0x40,0x76,0x6f,0x6c,0x75,0x6d,0x65,0x69,0x55))
  TeleportPlayer(0,484,13,31,0,0)
  0()



EVENT   6
 PAGE   1
  250(bytes(0x04,0x08,0x6f,0x3a,0x0c,0x52,0x50,0x47,0x3a,0x3a,0x53,0x45,0x08,0x3a,0x0a,0x40,0x6e,0x61,0x6d,0x65,0x49,0x22,0x09,0x4d,0x6f,0x76,0x65,0x06,0x3a,0x06,0x45,0x54,0x3a,0x0b,0x40,0x70,0x69,0x74,0x63,0x68,0x69,0x69,0x3a,0x0c,0x40,0x76,0x6f,0x6c,0x75,0x6d,0x65,0x69,0x55))
  TeleportPlayer(0,484,13,31,0,0)
  0()



EVENT   7
 PAGE   1
  250(bytes(0x04,0x08,0x6f,0x3a,0x0c,0x52,0x50,0x47,0x3a,0x3a,0x53,0x45,0x08,0x3a,0x0a,0x40,0x6e,0x61,0x6d,0x65,0x49,0x22,0x09,0x4d,0x6f,0x76,0x65,0x06,0x3a,0x06,0x45,0x54,0x3a,0x0b,0x40,0x70,0x69,0x74,0x63,0x68,0x69,0x69,0x3a,0x0c,0x40,0x76,0x6f,0x6c,0x75,0x6d,0x65,0x69,0x55))
  TeleportPlayer(0,484,13,31,0,0)
  0()



EVENT   8
 PAGE   1
  250(bytes(0x04,0x08,0x6f,0x3a,0x0c,0x52,0x50,0x47,0x3a,0x3a,0x53,0x45,0x08,0x3a,0x0a,0x40,0x6e,0x61,0x6d,0x65,0x49,0x22,0x09,0x4d,0x6f,0x76,0x65,0x06,0x3a,0x06,0x45,0x54,0x3a,0x0b,0x40,0x70,0x69,0x74,0x63,0x68,0x69,0x69,0x3a,0x0c,0x40,0x76,0x6f,0x6c,0x75,0x6d,0x65,0x69,0x55))
  TeleportPlayer(0,484,54,31,0,0)
  0()



EVENT   9
 PAGE   1
  250(bytes(0x04,0x08,0x6f,0x3a,0x0c,0x52,0x50,0x47,0x3a,0x3a,0x53,0x45,0x08,0x3a,0x0a,0x40,0x6e,0x61,0x6d,0x65,0x49,0x22,0x09,0x4d,0x6f,0x76,0x65,0x06,0x3a,0x06,0x45,0x54,0x3a,0x0b,0x40,0x70,0x69,0x74,0x63,0x68,0x69,0x69,0x3a,0x0c,0x40,0x76,0x6f,0x6c,0x75,0x6d,0x65,0x69,0x55))
  TeleportPlayer(0,484,54,31,0,0)
  0()



EVENT   10
 PAGE   1
  250(bytes(0x04,0x08,0x6f,0x3a,0x0c,0x52,0x50,0x47,0x3a,0x3a,0x53,0x45,0x08,0x3a,0x0a,0x40,0x6e,0x61,0x6d,0x65,0x49,0x22,0x09,0x4d,0x6f,0x76,0x65,0x06,0x3a,0x06,0x45,0x54,0x3a,0x0b,0x40,0x70,0x69,0x74,0x63,0x68,0x69,0x69,0x3a,0x0c,0x40,0x76,0x6f,0x6c,0x75,0x6d,0x65,0x69,0x55))
  TeleportPlayer(0,484,54,31,0,0)
  0()



EVENT   11
 PAGE   1
  250(bytes(0x04,0x08,0x6f,0x3a,0x0c,0x52,0x50,0x47,0x3a,0x3a,0x53,0x45,0x08,0x3a,0x0a,0x40,0x6e,0x61,0x6d,0x65,0x49,0x22,0x09,0x4d,0x6f,0x76,0x65,0x06,0x3a,0x06,0x45,0x54,0x3a,0x0b,0x40,0x70,0x69,0x74,0x63,0x68,0x69,0x69,0x3a,0x0c,0x40,0x76,0x6f,0x6c,0x75,0x6d,0x65,0x69,0x55))
  TeleportPlayer(0,484,54,31,0,0)
  0()



EVENT   12
 PAGE   1
  250(bytes(0x04,0x08,0x6f,0x3a,0x0c,0x52,0x50,0x47,0x3a,0x3a,0x53,0x45,0x08,0x3a,0x0a,0x40,0x6e,0x61,0x6d,0x65,0x49,0x22,0x09,0x4d,0x6f,0x76,0x65,0x06,0x3a,0x06,0x45,0x54,0x3a,0x0b,0x40,0x70,0x69,0x74,0x63,0x68,0x69,0x69,0x3a,0x0c,0x40,0x76,0x6f,0x6c,0x75,0x6d,0x65,0x69,0x55))
  TeleportPlayer(0,484,54,31,0,0)
  0()



EVENT   13
 PAGE   1
  250(bytes(0x04,0x08,0x6f,0x3a,0x0c,0x52,0x50,0x47,0x3a,0x3a,0x53,0x45,0x08,0x3a,0x0a,0x40,0x6e,0x61,0x6d,0x65,0x49,0x22,0x09,0x4d,0x6f,0x76,0x65,0x06,0x3a,0x06,0x45,0x54,0x3a,0x0b,0x40,0x70,0x69,0x74,0x63,0x68,0x69,0x69,0x3a,0x0c,0x40,0x76,0x6f,0x6c,0x75,0x6d,0x65,0x69,0x55))
  TeleportPlayer(0,375,55,13,0,0)
  0()



EVENT   14
 PAGE   1
  250(bytes(0x04,0x08,0x6f,0x3a,0x0c,0x52,0x50,0x47,0x3a,0x3a,0x53,0x45,0x08,0x3a,0x0a,0x40,0x6e,0x61,0x6d,0x65,0x49,0x22,0x09,0x4d,0x6f,0x76,0x65,0x06,0x3a,0x06,0x45,0x54,0x3a,0x0b,0x40,0x70,0x69,0x74,0x63,0x68,0x69,0x69,0x3a,0x0c,0x40,0x76,0x6f,0x6c,0x75,0x6d,0x65,0x69,0x55))
  TeleportPlayer(0,375,22,13,0,0)
  0()



EVENT   15
 PAGE   1
  If(6,-1,2)
   250(bytes(0x04,0x08,0x6f,0x3a,0x0c,0x52,0x50,0x47,0x3a,0x3a,0x53,0x45,0x08,0x3a,0x0a,0x40,0x6e,0x61,0x6d,0x65,0x49,0x22,0x09,0x4d,0x6f,0x76,0x65,0x06,0x3a,0x06,0x45,0x54,0x3a,0x0b,0x40,0x70,0x69,0x74,0x63,0x68,0x69,0x69,0x3a,0x0c,0x40,0x76,0x6f,0x6c,0x75,0x6d,0x65,0x69,0x55))
   TeleportPlayer(0,375,56,49,0,0)
   0()
  EndIf()
  0()



EVENT   16
 PAGE   1
  If(6,-1,2)
   250(bytes(0x04,0x08,0x6f,0x3a,0x0c,0x52,0x50,0x47,0x3a,0x3a,0x53,0x45,0x08,0x3a,0x0a,0x40,0x6e,0x61,0x6d,0x65,0x49,0x22,0x09,0x4d,0x6f,0x76,0x65,0x06,0x3a,0x06,0x45,0x54,0x3a,0x0b,0x40,0x70,0x69,0x74,0x63,0x68,0x69,0x69,0x3a,0x0c,0x40,0x76,0x6f,0x6c,0x75,0x6d,0x65,0x69,0x55))
   TeleportPlayer(0,375,55,49,0,0)
   0()
  EndIf()
  0()



EVENT   17
 PAGE   1
  If(6,-1,2)
   250(bytes(0x04,0x08,0x6f,0x3a,0x0c,0x52,0x50,0x47,0x3a,0x3a,0x53,0x45,0x08,0x3a,0x0a,0x40,0x6e,0x61,0x6d,0x65,0x49,0x22,0x09,0x4d,0x6f,0x76,0x65,0x06,0x3a,0x06,0x45,0x54,0x3a,0x0b,0x40,0x70,0x69,0x74,0x63,0x68,0x69,0x69,0x3a,0x0c,0x40,0x76,0x6f,0x6c,0x75,0x6d,0x65,0x69,0x55))
   TeleportPlayer(0,375,22,49,0,0)
   0()
  EndIf()
  0()



EVENT   18
 PAGE   1
  If(6,-1,2)
   250(bytes(0x04,0x08,0x6f,0x3a,0x0c,0x52,0x50,0x47,0x3a,0x3a,0x53,0x45,0x08,0x3a,0x0a,0x40,0x6e,0x61,0x6d,0x65,0x49,0x22,0x09,0x4d,0x6f,0x76,0x65,0x06,0x3a,0x06,0x45,0x54,0x3a,0x0b,0x40,0x70,0x69,0x74,0x63,0x68,0x69,0x69,0x3a,0x0c,0x40,0x76,0x6f,0x6c,0x75,0x6d,0x65,0x69,0x55))
   TeleportPlayer(0,375,21,49,0,0)
   0()
  EndIf()
  0()



EVENT   19
 PAGE   1
  250(bytes(0x04,0x08,0x6f,0x3a,0x0c,0x52,0x50,0x47,0x3a,0x3a,0x53,0x45,0x08,0x3a,0x0a,0x40,0x6e,0x61,0x6d,0x65,0x49,0x22,0x09,0x4d,0x6f,0x76,0x65,0x06,0x3a,0x06,0x45,0x54,0x3a,0x0b,0x40,0x70,0x69,0x74,0x63,0x68,0x69,0x69,0x3a,0x0c,0x40,0x76,0x6f,0x6c,0x75,0x6d,0x65,0x69,0x55))
  TeleportPlayer(0,486,65,11,0,0)
  0()



EVENT   20
 PAGE   1
  250(bytes(0x04,0x08,0x6f,0x3a,0x0c,0x52,0x50,0x47,0x3a,0x3a,0x53,0x45,0x08,0x3a,0x0a,0x40,0x6e,0x61,0x6d,0x65,0x49,0x22,0x09,0x4d,0x6f,0x76,0x65,0x06,0x3a,0x06,0x45,0x54,0x3a,0x0b,0x40,0x70,0x69,0x74,0x63,0x68,0x69,0x69,0x3a,0x0c,0x40,0x76,0x6f,0x6c,0x75,0x6d,0x65,0x69,0x55))
  TeleportPlayer(0,486,24,11,0,0)
  0()



EVENT   21
 PAGE   1
  If(6,-1,2)
   250(bytes(0x04,0x08,0x6f,0x3a,0x0c,0x52,0x50,0x47,0x3a,0x3a,0x53,0x45,0x08,0x3a,0x0a,0x40,0x6e,0x61,0x6d,0x65,0x49,0x22,0x09,0x4d,0x6f,0x76,0x65,0x06,0x3a,0x06,0x45,0x54,0x3a,0x0b,0x40,0x70,0x69,0x74,0x63,0x68,0x69,0x69,0x3a,0x0c,0x40,0x76,0x6f,0x6c,0x75,0x6d,0x65,0x69,0x55))
   TeleportPlayer(0,486,24,48,0,0)
   0()
  EndIf()
  0()



EVENT   22
 PAGE   1
  If(6,-1,2)
   250(bytes(0x04,0x08,0x6f,0x3a,0x0c,0x52,0x50,0x47,0x3a,0x3a,0x53,0x45,0x08,0x3a,0x0a,0x40,0x6e,0x61,0x6d,0x65,0x49,0x22,0x09,0x4d,0x6f,0x76,0x65,0x06,0x3a,0x06,0x45,0x54,0x3a,0x0b,0x40,0x70,0x69,0x74,0x63,0x68,0x69,0x69,0x3a,0x0c,0x40,0x76,0x6f,0x6c,0x75,0x6d,0x65,0x69,0x55))
   TeleportPlayer(0,486,24,48,0,0)
   0()
  EndIf()
  0()



EVENT   23
 PAGE   1
  250(bytes(0x04,0x08,0x6f,0x3a,0x0c,0x52,0x50,0x47,0x3a,0x3a,0x53,0x45,0x08,0x3a,0x0a,0x40,0x6e,0x61,0x6d,0x65,0x49,0x22,0x09,0x4d,0x6f,0x76,0x65,0x06,0x3a,0x06,0x45,0x54,0x3a,0x0b,0x40,0x70,0x69,0x74,0x63,0x68,0x69,0x69,0x3a,0x0c,0x40,0x76,0x6f,0x6c,0x75,0x6d,0x65,0x69,0x55))
  TeleportPlayer(0,486,65,48,0,0)
  0()



EVENT   24
 PAGE   1
  250(bytes(0x04,0x08,0x6f,0x3a,0x0c,0x52,0x50,0x47,0x3a,0x3a,0x53,0x45,0x08,0x3a,0x0a,0x40,0x6e,0x61,0x6d,0x65,0x49,0x22,0x09,0x4d,0x6f,0x76,0x65,0x06,0x3a,0x06,0x45,0x54,0x3a,0x0b,0x40,0x70,0x69,0x74,0x63,0x68,0x69,0x69,0x3a,0x0c,0x40,0x76,0x6f,0x6c,0x75,0x6d,0x65,0x69,0x55))
  TeleportPlayer(0,486,65,48,0,0)
  0()



EVENT   25
 PAGE   1
  If(12,"$game_player.y >= 14 && $game_player.y <= 44 && $game_player.x >= 9 && $game_player.x <= 10")
   If(6,-1,6)
    282(112)
    JumpToLabel("2")
    0()
   EndIf()
   0()
  EndIf()
  If(12,"$game_player.y >= 14 && $game_player.y <= 44 && $game_player.x >= 8 && $game_player.x <= 9")
   If(6,-1,4)
    282(111)
    JumpToLabel("3")
    0()
   EndIf()
   0()
  EndIf()
  If(12,"$game_player.x >= 18 && $game_player.x <= 49 && $game_player.y >= 5 && $game_player.y <= 6")
   If(6,-1,8)
    282(111)
    JumpToLabel("3")
    0()
   EndIf()
   0()
  EndIf()
  If(12,"$game_player.x >= 18 && $game_player.x <= 49 && $game_player.y >= 6 && $game_player.y <= 7")
   If(6,-1,2)
    282(112)
    JumpToLabel("2")
    0()
   EndIf()
   0()
  EndIf()
  If(12,"$game_player.y >= 14 && $game_player.y <= 44 && $game_player.x >= 58 && $game_player.x <= 59")
   If(6,-1,6)
    282(111)
    JumpToLabel("3")
    0()
   EndIf()
   0()
  EndIf()
  If(12,"$game_player.y >= 14 && $game_player.y <= 44 && $game_player.x <= 58 && $game_player.x >= 57")
   If(6,-1,4)
    282(112)
    JumpToLabel("2")
    0()
   EndIf()
   0()
  EndIf()
  JumpToLabel("1")
  DefineLabel("2")
  TeleportEvent(33,0,10,45,0)
  TeleportEvent(61,0,57,45,0)
  JumpToLabel("1")
  DefineLabel("3")
  TeleportEvent(33,0,10,44,0)
  TeleportEvent(61,0,57,44,0)
  DefineLabel("1")
  Wait(1)
  0()



EVENT   26
 PAGE   1
  TeleportEvent(28,0,9,44,0)
  TeleportEvent(66,0,58,44,0)
  TeleportEvent(29,0,9,44,0)
  TeleportEvent(67,0,58,44,0)
  222()
  TemporaryRemoveEvent()
  0()



EVENT   27
 PAGE   1
  0()



EVENT   28
 PAGE   1
  0()



EVENT   29
 PAGE   1
  0()



EVENT   30
 PAGE   1
  0()



EVENT   31
 PAGE   1
  0()



EVENT   32
 PAGE   1
  0()



EVENT   33
 PAGE   1
  0()



EVENT   34
 PAGE   1
  TeleportEvent(18,0,16,50,0)
  TeleportEvent(17,0,17,50,0)
  TeleportEvent(16,0,50,50,0)
  TeleportEvent(15,0,51,50,0)
  282(111)
  TeleportEvent(33,0,10,44,0)
  TeleportEvent(61,0,57,44,0)
  0()



EVENT   35
 PAGE   1
  TeleportEvent(18,0,16,50,0)
  TeleportEvent(17,0,17,50,0)
  TeleportEvent(16,0,50,50,0)
  TeleportEvent(15,0,51,50,0)
  282(111)
  TeleportEvent(33,0,10,44,0)
  TeleportEvent(61,0,57,44,0)
  0()



EVENT   36
 PAGE   1
  TeleportEvent(18,0,16,50,0)
  TeleportEvent(17,0,17,50,0)
  TeleportEvent(16,0,50,50,0)
  TeleportEvent(15,0,51,50,0)
  282(111)
  TeleportEvent(33,0,10,44,0)
  TeleportEvent(61,0,57,44,0)
  0()



EVENT   37
 PAGE   1
  TeleportEvent(18,0,16,51,0)
  TeleportEvent(17,0,17,51,0)
  TeleportEvent(16,0,50,51,0)
  TeleportEvent(15,0,51,51,0)
  0()



EVENT   38
 PAGE   1
  TeleportEvent(18,0,16,51,0)
  TeleportEvent(17,0,17,51,0)
  TeleportEvent(16,0,50,51,0)
  TeleportEvent(15,0,51,51,0)
  0()



EVENT   39
 PAGE   1
  TeleportEvent(18,0,16,50,0)
  TeleportEvent(17,0,17,50,0)
  TeleportEvent(16,0,50,50,0)
  TeleportEvent(15,0,51,50,0)
  0()



EVENT   40
 PAGE   1
  TeleportEvent(18,0,16,51,0)
  TeleportEvent(17,0,17,51,0)
  TeleportEvent(16,0,50,51,0)
  TeleportEvent(15,0,51,51,0)
  0()



EVENT   41
 PAGE   1
  TeleportEvent(18,0,16,50,0)
  TeleportEvent(17,0,17,50,0)
  TeleportEvent(16,0,50,50,0)
  TeleportEvent(15,0,51,50,0)
  0()



EVENT   42
 PAGE   1
  TeleportEvent(18,0,16,50,0)
  TeleportEvent(17,0,17,50,0)
  TeleportEvent(16,0,50,50,0)
  TeleportEvent(15,0,51,50,0)
  0()



EVENT   43
 PAGE   1
  TeleportEvent(18,0,16,50,0)
  TeleportEvent(17,0,17,50,0)
  TeleportEvent(16,0,50,50,0)
  TeleportEvent(15,0,51,50,0)
  0()



EVENT   44
 PAGE   1
  0()



EVENT   45
 PAGE   1
  0()



EVENT   46
 PAGE   1
  0()



EVENT   47
 PAGE   1
  TeleportEvent(18,0,16,50,0)
  TeleportEvent(17,0,17,50,0)
  TeleportEvent(16,0,50,50,0)
  TeleportEvent(15,0,51,50,0)
  0()



EVENT   48
 PAGE   1
  TeleportEvent(18,0,16,50,0)
  TeleportEvent(17,0,17,50,0)
  TeleportEvent(16,0,50,50,0)
  TeleportEvent(15,0,51,50,0)
  0()



EVENT   49
 PAGE   1
  TeleportEvent(18,0,16,50,0)
  TeleportEvent(17,0,17,50,0)
  TeleportEvent(16,0,50,50,0)
  TeleportEvent(15,0,51,50,0)
  0()



EVENT   50
 PAGE   1
  TeleportEvent(18,0,16,50,0)
  TeleportEvent(17,0,17,50,0)
  TeleportEvent(16,0,50,50,0)
  TeleportEvent(15,0,51,50,0)
  0()



EVENT   51
 PAGE   1
  TeleportEvent(18,0,16,50,0)
  TeleportEvent(17,0,17,50,0)
  TeleportEvent(16,0,50,50,0)
  TeleportEvent(15,0,51,50,0)
  282(111)
  TeleportEvent(33,0,10,44,0)
  TeleportEvent(61,0,57,44,0)
  0()



EVENT   52
 PAGE   1
  TeleportEvent(18,0,16,50,0)
  TeleportEvent(17,0,17,50,0)
  TeleportEvent(16,0,50,50,0)
  TeleportEvent(15,0,51,50,0)
  282(111)
  TeleportEvent(33,0,10,44,0)
  TeleportEvent(61,0,57,44,0)
  0()



EVENT   53
 PAGE   1
  TeleportEvent(18,0,16,50,0)
  TeleportEvent(17,0,17,50,0)
  TeleportEvent(16,0,50,50,0)
  TeleportEvent(15,0,51,50,0)
  282(111)
  TeleportEvent(33,0,10,44,0)
  TeleportEvent(61,0,57,44,0)
  0()

EVENT   54
 PAGE   1
  TeleportEvent(18,0,16,51,0)
  TeleportEvent(17,0,17,51,0)
  TeleportEvent(16,0,50,51,0)
  TeleportEvent(15,0,51,51,0)
  0()



EVENT   55
 PAGE   1
  TeleportEvent(18,0,16,51,0)
  TeleportEvent(17,0,17,51,0)
  TeleportEvent(16,0,50,51,0)
  TeleportEvent(15,0,51,51,0)
  0()



EVENT   56
 PAGE   1
  TeleportEvent(18,0,16,50,0)
  TeleportEvent(17,0,17,50,0)
  TeleportEvent(16,0,50,50,0)
  TeleportEvent(15,0,51,50,0)
  0()



EVENT   57
 PAGE   1
  TeleportEvent(18,0,16,51,0)
  TeleportEvent(17,0,17,51,0)
  TeleportEvent(16,0,50,51,0)
  TeleportEvent(15,0,51,51,0)
  0()



EVENT   58
 PAGE   1
  TeleportEvent(18,0,16,50,0)
  TeleportEvent(17,0,17,50,0)
  TeleportEvent(16,0,50,50,0)
  TeleportEvent(15,0,51,50,0)
  0()



EVENT   59
 PAGE   1
  TeleportEvent(18,0,16,50,0)
  TeleportEvent(17,0,17,50,0)
  TeleportEvent(16,0,50,50,0)
  TeleportEvent(15,0,51,50,0)
  0()



EVENT   60
 PAGE   1
  TeleportEvent(18,0,16,50,0)
  TeleportEvent(17,0,17,50,0)
  TeleportEvent(16,0,50,50,0)
  TeleportEvent(15,0,51,50,0)
  0()



EVENT   61
 PAGE   1
  0()



EVENT   62
 PAGE   1
  0()



EVENT   63
 PAGE   1
  0()



EVENT   64
 PAGE   1
  0()



EVENT   65
 PAGE   1
  0()



EVENT   66
 PAGE   1
  0()



EVENT   67
 PAGE   1
  0()



EVENT   68
 PAGE   1
  TeleportEvent(18,0,16,50,0)
  TeleportEvent(17,0,17,50,0)
  TeleportEvent(16,0,50,50,0)
  TeleportEvent(15,0,51,50,0)
  0()



EVENT   69
 PAGE   1
  TeleportEvent(18,0,16,50,0)
  TeleportEvent(17,0,17,50,0)
  TeleportEvent(16,0,50,50,0)
  TeleportEvent(15,0,51,50,0)
  0()



EVENT   70
 PAGE   1
  TeleportEvent(18,0,16,50,0)
  TeleportEvent(17,0,17,50,0)
  TeleportEvent(16,0,50,50,0)
  TeleportEvent(15,0,51,50,0)
  0()



EVENT   71
 PAGE   1
  TeleportEvent(18,0,16,50,0)
  TeleportEvent(17,0,17,50,0)
  TeleportEvent(16,0,50,50,0)
  TeleportEvent(15,0,51,50,0)
  0()



EVENT   72
 PAGE   1
  0()



EVENT   73
 PAGE   1
  0()



EVENT   74
 PAGE   1
  0()



EVENT   75
 PAGE   1
  250(bytes(0x04,0x08,0x6f,0x3a,0x0c,0x52,0x50,0x47,0x3a,0x3a,0x53,0x45,0x08,0x3a,0x0a,0x40,0x6e,0x61,0x6d,0x65,0x49,0x22,0x09,0x4d,0x6f,0x76,0x65,0x06,0x3a,0x06,0x45,0x54,0x3a,0x0b,0x40,0x70,0x69,0x74,0x63,0x68,0x69,0x69,0x3a,0x0c,0x40,0x76,0x6f,0x6c,0x75,0x6d,0x65,0x69,0x55))
  TeleportPlayer(0,375,22,49,0,0)
  0()



EVENT   76
 PAGE   1
  250(bytes(0x04,0x08,0x6f,0x3a,0x0c,0x52,0x50,0x47,0x3a,0x3a,0x53,0x45,0x08,0x3a,0x0a,0x40,0x6e,0x61,0x6d,0x65,0x49,0x22,0x09,0x4d,0x6f,0x76,0x65,0x06,0x3a,0x06,0x45,0x54,0x3a,0x0b,0x40,0x70,0x69,0x74,0x63,0x68,0x69,0x69,0x3a,0x0c,0x40,0x76,0x6f,0x6c,0x75,0x6d,0x65,0x69,0x55))
  TeleportPlayer(0,375,21,49,0,0)
  0()



EVENT   77
 PAGE   1
  250(bytes(0x04,0x08,0x6f,0x3a,0x0c,0x52,0x50,0x47,0x3a,0x3a,0x53,0x45,0x08,0x3a,0x0a,0x40,0x6e,0x61,0x6d,0x65,0x49,0x22,0x09,0x4d,0x6f,0x76,0x65,0x06,0x3a,0x06,0x45,0x54,0x3a,0x0b,0x40,0x70,0x69,0x74,0x63,0x68,0x69,0x69,0x3a,0x0c,0x40,0x76,0x6f,0x6c,0x75,0x6d,0x65,0x69,0x55))
  TeleportPlayer(0,375,56,49,0,0)
  0()



EVENT   78
 PAGE   1
  250(bytes(0x04,0x08,0x6f,0x3a,0x0c,0x52,0x50,0x47,0x3a,0x3a,0x53,0x45,0x08,0x3a,0x0a,0x40,0x6e,0x61,0x6d,0x65,0x49,0x22,0x09,0x4d,0x6f,0x76,0x65,0x06,0x3a,0x06,0x45,0x54,0x3a,0x0b,0x40,0x70,0x69,0x74,0x63,0x68,0x69,0x69,0x3a,0x0c,0x40,0x76,0x6f,0x6c,0x75,0x6d,0x65,0x69,0x55))
  TeleportPlayer(0,375,55,49,0,0)
  0()



EVENT   79
 PAGE   1
  250(bytes(0x04,0x08,0x6f,0x3a,0x0c,0x52,0x50,0x47,0x3a,0x3a,0x53,0x45,0x08,0x3a,0x0a,0x40,0x6e,0x61,0x6d,0x65,0x49,0x22,0x09,0x4d,0x6f,0x76,0x65,0x06,0x3a,0x06,0x45,0x54,0x3a,0x0b,0x40,0x70,0x69,0x74,0x63,0x68,0x69,0x69,0x3a,0x0c,0x40,0x76,0x6f,0x6c,0x75,0x6d,0x65,0x69,0x55))
  TeleportPlayer(0,486,65,48,0,0)
  0()



EVENT   80
 PAGE   1
  250(bytes(0x04,0x08,0x6f,0x3a,0x0c,0x52,0x50,0x47,0x3a,0x3a,0x53,0x45,0x08,0x3a,0x0a,0x40,0x6e,0x61,0x6d,0x65,0x49,0x22,0x09,0x4d,0x6f,0x76,0x65,0x06,0x3a,0x06,0x45,0x54,0x3a,0x0b,0x40,0x70,0x69,0x74,0x63,0x68,0x69,0x69,0x3a,0x0c,0x40,0x76,0x6f,0x6c,0x75,0x6d,0x65,0x69,0x55))
  TeleportPlayer(0,486,65,48,0,0)
  0()



EVENT   81
 PAGE   1
  250(bytes(0x04,0x08,0x6f,0x3a,0x0c,0x52,0x50,0x47,0x3a,0x3a,0x53,0x45,0x08,0x3a,0x0a,0x40,0x6e,0x61,0x6d,0x65,0x49,0x22,0x09,0x4d,0x6f,0x76,0x65,0x06,0x3a,0x06,0x45,0x54,0x3a,0x0b,0x40,0x70,0x69,0x74,0x63,0x68,0x69,0x69,0x3a,0x0c,0x40,0x76,0x6f,0x6c,0x75,0x6d,0x65,0x69,0x55))
  TeleportPlayer(0,486,24,48,0,0)
  0()



EVENT   82
 PAGE   1
  250(bytes(0x04,0x08,0x6f,0x3a,0x0c,0x52,0x50,0x47,0x3a,0x3a,0x53,0x45,0x08,0x3a,0x0a,0x40,0x6e,0x61,0x6d,0x65,0x49,0x22,0x09,0x4d,0x6f,0x76,0x65,0x06,0x3a,0x06,0x45,0x54,0x3a,0x0b,0x40,0x70,0x69,0x74,0x63,0x68,0x69,0x69,0x3a,0x0c,0x40,0x76,0x6f,0x6c,0x75,0x6d,0x65,0x69,0x55))
  TeleportPlayer(0,486,24,48,0,0)
  0()


