# -*- encoding: utf-8 -*-
=begin
=図鑑_武器データ設定セクション by Foo

図鑑の武器の項に表示する内容を設定します。

==更新履歴
Date     Version Author Comment
13/07/24 1.0.1   Foo    設定項目の移動
13/07/20 1.0.0   Foo    新設


=end

#==============================================================================
# ■ NWConst::Library
#==============================================================================
module NWConst::Library
  # 武器入手場所
  # 文字列はシンボルで統一してください
  GET_WEAPON_PLACES = {
    1  => [:イリアスヴィル, :イリアスベルク],
    2  => [:イリアスベルク],
    3  => [:ポルノフ, :ポルノフ鉱山],
    4  => [:ハピネス村],
    5  => [:ナメクジタワー, :ミダス村],
    6  => [:エンリカ, :イリアスポート],
    7  => [:イリアスポート],
    8  => [:ナタリアポート],
    9  => [:ナタリアポート],
    10  => [:聖山アモス],
    11  => [:サン・イリア, :モンテカルロ, :南の海底神殿],
    12  => [:サン・イリア],
    13  => [:モンテカルロ],
    14  => [:サバサ],
    15  => [:サルーン, :マールポート, :魔導の塔],
    16  => [:サバサ],
    17  => [:サルーン],
    18  => [:グランドール],
    19  => [:海軍本部],
    20  => [:グランドノア],
    21  => [:グランドノア],
    22  => [:プランセクト村],
    23  => [:グランゴルド, :ゴルドポート, :サキュバスの村],
    24  => [:ゴルドポート],
    25  => [:ゴルドポート],
    26  => [:妖精の島],
    27  => [:ヤマタイ村],
    28  => [:妖精の島],
    29  => [:レミナ（異世界）, :ヘルゴンドの洞窟（異世界）],
    30  => [:レミナ（異世界）],
    31  => [:魔王城（異世界）],
    32  => [:魔王城],
    33  => [:ポケット魔王城],
    46  => [:イリアスヴィル, :ミトラ封印城],
    48  => [:イリアスヴィル, :イリアスベルク],
    49  => [:イリアスベルク],
    50  => [:ポルノフ],
    51  => [:ポルノフ],
    52  => [:ハピネス村],
    53  => [:ハピネス村],
    54  => [:メダル女王の城],
    55  => [:イリアスポート],
    56  => [:エンリカ],
    57  => [:エンリカ],
    58  => [:イリアスポート, :ナタリアポート],
    59  => [:秘宝の洞窟],
    60  => [:ナタリアポート],
    61  => [:サン・イリア],
    62  => [:サン・イリア],
    63  => [:モンテカルロ, :求道者の洞窟],
    64  => [:サバサ],
    65  => [:管理者の塔, :マールポート, :マール大回廊],
    66  => [:グランドール],
    67  => [:海軍本部],
    68  => [:グランドノア],
    69  => [:ウンディーネの泉],
    70  => [:プランセクト村],
    71  => [:ゴルドポート],
    72  => [:グランゴルド],
    73  => [:世界樹],
    74  => [:妖精の島],
    75  => [:妖精の島],
    76  => [:ヤマタイ村],
    77  => [:レミナ（異世界）],
    78  => [:スノウヘブン],
    87  => [:ミダス村],
    88  => [:イリアスポート],
    89  => [:サン・イリア],
    90  => [:サン・イリア],
    91  => [:モンテカルロ],
    92  => [:モンテカルロ],
    93  => [:北のお化け屋敷],
    94  => [:サバサ, :サルーン],
    95  => [:サルーン],
    96  => [:サバサ],
    97  => [:大海賊の洞窟],
    98  => [:グランドノア],
    99  => [:グランドノア],
    100  => [:グランドノア],
    101  => [:ヤマタイ村],
    102  => [:オロチの洞],
    103  => [:ゴルド砦],
    104  => [:グランゴルド, :ゴルドポート],
    105  => [:グランゴルド],
    106  => [:ゴルドポート],
    107  => [:幽霊船],
    108  => [:妖精の島],
    109  => [:レミナ（異世界）],
    110  => [:スノウヘブン],
    111  => [:ポケット魔王城],
    112  => [:魔王城],
    125  => [:管理者の塔, :マールポート],
    126  => [:グランドール],
    127  => [:海軍本部],
    128  => [:カジノ景品（グランドール）, :ヤマタイ村, :プランセクト村],
    129  => [:ヤマタイ村],
    130  => [:グランゴルド, :ゴルドポート],
    131  => [:ゴルドポート],
    132  => [:妖精の島],
    133  => [:ヤマタイ村],
    134  => [:魔王城（異世界）],
    143  => [:タラスの丘, :イリアスヴィル, :イリアスベルク],
    144  => [:イリアスベルク],
    145  => [:ポルノフ],
    146  => [:ハピネス村],
    147  => [:ミダス村, :ミダス廃鉱],
    148  => [:イリアスポート],
    149  => [:ナタリアポート],
    150  => [:サン・イリア],
    151  => [:サン・イリア],
    152  => [:モンテカルロ],
    153  => [:サバサ],
    154  => [:サルーン, :ミトラ封印城],
    155  => [:グランドノア],
    156  => [:大海賊の洞窟],
    157  => [:グランドノア],
    158  => [:プランセクト村, :進軍の丘],
    159  => [:グランゴルド],
    160  => [:ゴルドポート],
    161  => [:妖精の島, :ライラの大滝],
    162  => [:妖精の島],
    163  => [:ヤマタイ村],
    164  => [:レミナ（異世界）, :ヘルゴンドの洞窟（異世界）],
    165  => [:スノウヘブン],
    166  => [:ポケット魔王城],
    177  => [:グランゴルド],
    178  => [:ヤマタイ村],
    179  => [:魔王城（異世界）],
    180  => [:魔王城],
    181  => [:スノウヘブン, :雪越えの洞窟],
    182  => [:メダル女王の城],
    190  => [:タラスの丘, :イリアスベルク, :ポルノフ],
    191  => [:ポルノフ],
    192  => [:ポルノフ],
    193  => [:ハピネス村, :イリアスポート],
    194  => [:イリアスポート],
    195  => [:サン・イリア],
    196  => [:サン・イリア],
    197  => [:モンテカルロ],
    198  => [:グランドール],
    199  => [:海軍本部],
    200  => [:グランドノア],
    201  => [:ヤマタイ村],
    202  => [:グランゴルド],
    203  => [:ゴルドポート],
    204  => [:ヤマタイ村],
    205  => [:レミナ（異世界）],
    208  => [:ミダス村],
    209  => [:イリアスポート, :ナタリアポート, :タルタロス（イリアス大陸東）],
    210  => [:ナタリアポート],
    211  => [:サン・イリア, :モンテカルロ],
    212  => [:サン・イリア],
    213  => [:北のお化け屋敷],
    214  => [:モンテカルロ],
    215  => [:サバサ, :サルーン],
    216  => [:サバサ, :サルーンの丘],
    217  => [:グランドール],
    218  => [:サルーン],
    219  => [:管理者の塔, :大海賊の洞窟],
    220  => [:グランドノア],
    221  => [:ヤマタイ村],
    222  => [:プランセクト村],
    223  => [:グランゴルド],
    224  => [:ゴルドポート],
    225  => [:ゴルドポート],
    226  => [:妖精の島],
    227  => [:グランゴルド],
    228  => [:ヤマタイ村],
    229  => [:妖精の島],
    230  => [:レミナ（異世界）, :スノウヘブン, :タルタロス（ゴルド大陸西）],
    231  => [:スノウヘブン],
    232  => [:ポケット魔王城, :魔王城],
    243  => [:ヤマタイ村, :ヤマタイへの洞窟],
    244  => [:オロチの洞],
    245  => [:プランセクト村],
    246  => [:グランゴルド, :ゴルドポート],
    247  => [:ゴルドポート],
    248  => [:サキュバスの村],
    249  => [:ゴルド火山洞窟],
    250  => [:幽霊船],
    251  => [:滅びの地],
    252  => [:妖精の島],
    253  => [:世界樹],
    254  => [:ライラの大滝],
    255  => [:ヤマタイ村],
    256  => [:魔王城（異世界）],
    257  => [:イリアス神殿跡],
    258  => [:魔王城],
    268  => [:ヤマタイ村, :ヤマタイへの洞窟],
    269  => [:プランセクト村, :ミノタウロスの迷宮],
    270  => [:リマ村廃墟],
    271  => [:グランゴルド],
    272  => [:溶岩鉱窟],
    273  => [:ゴルドポート],
    274  => [:ヤマタイ村, :蓬莱山],
    275  => [:妖精の島],
    276  => [:妖精の島],
    277  => [:レミナ（異世界）],
    278  => [:スノウヘブン],
    279  => [:イリアスヴィル],
    280  => [:イリアス神殿跡],
    281  => [:ポケット魔王城],
    290  => [:タラスの丘, :イリアスヴィル, :イリアスベルク],
    291  => [:イリアスベルク],
    292  => [:ポルノフ],
    293  => [:ハピネス村],
    294  => [:ミダス村],
    295  => [:エンリカ],
    296  => [:エンリカ],
    297  => [:エンリカ],
    298  => [:イリアスポート],
    299  => [:ナタリアポート, :ナタリア海岸],
    300  => [:サン・イリア, :モンテカルロ],
    301  => [:サン・イリア],
    302  => [:サン・イリア, :精霊の森],
    303  => [:モンテカルロ],
    304  => [:サバサ, :サルーン],
    305  => [:ピラミッド],
    306  => [:サバサ],
    307  => [:サルーン],
    308  => [:グランドノア],
    309  => [:サファル砂漠遺跡],
    310  => [:グランドノア],
    311  => [:グランドノア],
    312  => [:ヤマタイ村],
    313  => [:プランセクト村],
    314  => [:グランゴルド],
    315  => [:ゴルドポート],
    316  => [:妖精の島, :吸血鬼の魔城],
    317  => [:妖精の島],
    318  => [:ヤマタイ村],
    319  => [:スノウヘブン],
    320  => [:レミナ（異世界）],
    321  => [:ポケット魔王城],
    322  => [:魔王城],
    334  => [:イリアスベルク, :イリナ山地北の洞窟],
    335  => [:ポルノフ],
    336  => [:ハピネス村],
    337  => [:ミダス村],
    338  => [:イリアスポート],
    339  => [:サン・イリア],
    340  => [:サン・イリア],
    341  => [:モンテカルロ],
    342  => [:サバサ],
    343  => [:サルーン],
    344  => [:グランドノア],
    345  => [:海軍本部],
    346  => [:グランドノア],
    347  => [:オロチの洞],
    348  => [:グランゴルド],
    349  => [:ゴルドポート, :溶岩鉱窟],
    350  => [:妖精の島],
    351  => [:ヤマタイ村],
    352  => [:妖精の島],
    353  => [:ポケット魔王城],
    354  => [:魔王城],
    362  => [:イリアスヴィル],
    363  => [:イリアスベルク],
    364  => [:ポルノフ],
    365  => [:ハピネス村, :ハーピーの塔, :イリアスポート, :ナタリアポート],
    366  => [:ミダス村],
    367  => [:エンリカ],
    368  => [:ナタリアポート],
    369  => [:サン・イリア, :モンテカルロ],
    370  => [:サン・イリア],
    371  => [:サン・イリア],
    372  => [:北のお化け屋敷],
    373  => [:モンテカルロ],
    374  => [:サバサ, :サルーン],
    375  => [:グランドール],
    376  => [:ピラミッド],
    377  => [:サバサ],
    378  => [:サルーン],
    379  => [:グランドノア],
    380  => [:グランドノア, :化石鉱山],
    381  => [:ヤマタイ村],
    382  => [:プランセクト村],
    383  => [:グランゴルド],
    384  => [:ゴルドポート],
    385  => [:妖精の島],
    386  => [:妖精の島, :人形遣いの塔],
    387  => [:ヤマタイ村],
    388  => [:レミナ（異世界）],
    389  => [:スノウヘブン],
    390  => [:ポケット魔王城],
    400  => [:イリアスヴィル, :イリアスベルク],
    401  => [:イリアスベルク],
    402  => [:ポルノフ, :イリアスポート, :ナタリアポート],
    403  => [:ポルノフ],
    404  => [:ハピネス村, :ミダス廃鉱],
    405  => [:ミダス村],
    406  => [:エンリカ],
    407  => [:イリアスポート],
    408  => [:ナタリアポート],
    409  => [:サン・イリア, :モンテカルロ, :古代神殿跡],
    410  => [:サン・イリア],
    411  => [:サン・イリア],
    412  => [:サン・イリア],
    413  => [:モンテカルロ],
    414  => [:サバサ],
    415  => [:ピラミッド],
    416  => [:サルーン],
    417  => [:サファル砂漠遺跡],
    418  => [:海軍本部],
    419  => [:サバサ],
    420  => [:グランドノア],
    421  => [:ヤマタイ村],
    422  => [:グランドノア],
    423  => [:ゴルドポート, :幽霊船],
    424  => [:ゴルドポート],
    425  => [:妖精の島],
    426  => [:妖精の島],
    427  => [:妖精の島],
    428  => [:レミナ（異世界）],
    429  => [:スノウヘブン],
    430  => [:ポケット魔王城],
    431  => [:魔王城],
    441  => [:イリアスベルク, :イリナ山地北の洞窟, :ポルノフ, :イリアスポート],
    442  => [:ポルノフ],
    443  => [:ポルノフ],
    444  => [:ハピネス村],
    445  => [:ミダス村],
    446  => [:秘宝の洞窟],
    447  => [:サン・イリア],
    448  => [:サン・イリア],
    449  => [:モンテカルロ],
    450  => [:サルーン],
    451  => [:グランドノア],
    452  => [:グランドノア],
    453  => [:グランドノア],
    454  => [:ヤマタイ村],
    455  => [:プランセクト村],
    456  => [:グランゴルド],
    457  => [:ゴルドポート],
    458  => [:ゴルドポート, :忘れられし塔],
    459  => [:妖精の島],
    460  => [:妖精の島],
    461  => [:ヤマタイ村],
    462  => [:レミナ（異世界）],
    463  => [:ポケット魔王城, :レミナ研究所],
    472  => [:イリアスヴィル, :イリアスベルク],
    473  => [:ポルノフ],
    474  => [:ハピネス村],
    475  => [:ハピネス村],
    476  => [:ハーピーの塔, :ミダス村, :イリアスポート, :ナタリアポート],
    477  => [:ミダス村],
    478  => [:エンリカ],
    479  => [:イリアスポート],
    480  => [:ナタリアポート, :秘宝の洞窟],
    481  => [:サン・イリア, :北のお化け屋敷],
    482  => [:サン・イリア],
    483  => [:モンテカルロ],
    484  => [:サバサ, :サルーン, :求道者の洞窟],
    485  => [:サバサ],
    486  => [:グランドール],
    487  => [:サルーン],
    488  => [:グランドノア, :魔導学園],
    489  => [:グランドノア],
    490  => [:グランドノア],
    491  => [:プランセクト村],
    492  => [:ゴルドポート],
    493  => [:グランゴルド],
    494  => [:妖精の島],
    495  => [:ヤマタイ村],
    496  => [:スノウヘブン],
    497  => [:ポケット魔王城, :タルタロス（ヘルゴンド大陸西）],
    500  => [:魔王城],
    509  => [:イリアスヴィル, :試しの洞窟, :イリアスベルク],
    510  => [:イリアスベルク],
    511  => [:ポルノフ],
    512  => [:ハピネス村],
    513  => [:ミダス村],
    514  => [:エンリカ],
    515  => [:エンリカ],
    516  => [:エンリカ, :ポルノフ鉱山],
    517  => [:エンリカ],
    518  => [:ナタリアポート, :秘宝の洞窟],
    519  => [:サン・イリア, :古代神殿跡],
    520  => [:サン・イリア],
    521  => [:モンテカルロ],
    522  => [:サバサ, :サルーン],
    523  => [:サバサ],
    524  => [:サルーン],
    525  => [:魔導の塔],
    526  => [:グランドノア, :レド山],
    527  => [:グランドノア],
    528  => [:プランセクト村],
    529  => [:グランゴルド],
    530  => [:プランセクト村],
    531  => [:ゴルドポート],
    532  => [:ゴルドポート],
    533  => [:妖精の島],
    534  => [:妖精の島, :孤独の地],
    535  => [:ヤマタイ村],
    536  => [:レミナ（異世界）],
    537  => [:魔王城（異世界）],
    538  => [:スノウヘブン],
    539  => [:ポケット魔王城],
    548  => [:イリアスヴィル],
    549  => [:イリアスベルク],
    550  => [:ポルノフ, :ポルノフ鉱山],
    551  => [:ハピネス村],
    552  => [:ミダス村],
    553  => [:エンリカ],
    554  => [:エンリカ],
    555  => [:エンリカ],
    556  => [:イリナ山地南の洞窟, :イリアスポート, :ナタリアポート],
    557  => [:イリアスポート],
    558  => [:ラダイト村, :サン・イリア],
    559  => [:サン・イリア],
    560  => [:サン・イリア],
    561  => [:精霊の森],
    562  => [:モンテカルロ],
    563  => [:サバサ, :サルーン],
    564  => [:グランドール],
    565  => [:サルーン],
    566  => [:グランドノア],
    567  => [:グランドノア],
    568  => [:ヤマタイ村],
    569  => [:オロチの洞],
    570  => [:プランセクト村],
    571  => [:グランゴルド],
    572  => [:ゴルドポート],
    573  => [:妖精の島, :孤独の地],
    574  => [:妖精の島],
    575  => [:妖精の島],
    576  => [:ヤマタイ村],
    577  => [:スノウヘブン],
    578  => [:ポケット魔王城],
    589  => [:イリアスベルク, :イリナ山地南の洞窟, :ポルノフ],
    590  => [:イリアスベルク],
    591  => [:ポルノフ],
    592  => [:タルタロス（イリアス大陸南）, :ハピネス村],
    593  => [:ミダス村],
    594  => [:ナタリアポート],
    595  => [:ナタリアポート],
    596  => [:サン・イリア],
    597  => [:サン・イリア],
    598  => [:サバサ, :サルーン, :恵みのオアシス],
    599  => [:サバサ],
    600  => [:サルーン],
    601  => [:海軍本部],
    602  => [:グランドノア],
    603  => [:グランドノア],
    604  => [:ヤマタイ村],
    605  => [:グランゴルド, :ゴルドポート, :ゴルド海岸],
    606  => [:ゴルドポート],
    607  => [:ゴルドポート],
    608  => [:妖精の島],
    609  => [:妖精の島],
    610  => [:レミナ（異世界）],
    611  => [:ポケット魔王城],
    622  => [:イリアスベルク],
    623  => [:ポルノフ],
    624  => [:ハピネス村],
    625  => [:ミダス村],
    626  => [:エンリカ],
    627  => [:イリアスポート],
    628  => [:ナタリアポート],
    629  => [:サン・イリア],
    630  => [:サン・イリア],
    631  => [:モンテカルロ],
    632  => [:モンテカルロ],
    633  => [:サバサ],
    634  => [:サバサ],
    635  => [:サルーン],
    636  => [:サファル砂漠遺跡],
    637  => [:グランドノア],
    638  => [:グランドノア],
    639  => [:ヤマタイ村],
    640  => [:グランゴルド],
    641  => [:ゴルドポート, :悪夢の荒野],
    642  => [:ゴルドポート],
    643  => [:妖精の島],
    644  => [:妖精の島],
    645  => [:ヤマタイ村],
    646  => [:レミナ（異世界）],
    647  => [:スノウヘブン],
    648  => [:滅びの地],
    649  => [:ヘルゴンドの洞窟, :ポケット魔王城],
    657  => [:イリアスヴィルの裏山, :イリアスヴィル, :イリアスベルク],
    658  => [:イリアスヴィルの裏山, :イリアスヴィル],
    659  => [:イリアスベルク, :古代神殿跡],
    660  => [:ポルノフ],
    661  => [:ハピネス村, :イリアスポート],
    662  => [:ミダス村],
    663  => [:エンリカ],
    664  => [:イリアスポート],
    665  => [:ナタリアポート],
    666  => [:ラダイト村, :サン・イリア],
    667  => [:サン・イリア],
    668  => [:サン・イリア],
    669  => [:サン・イリア],
    670  => [:モンテカルロ, :サバサ],
    671  => [:モンテカルロ],
    672  => [:サバサ],
    673  => [:グランドール],
    674  => [:サルーン, :サルーン廃鉱],
    675  => [:マールポート, :マール大回廊],
    676  => [:海軍本部],
    677  => [:グランドノア],
    678  => [:グランドノア],
    679  => [:プランセクト村],
    680  => [:プランセクト村],
    681  => [:グランゴルド],
    682  => [:ゴルドポート],
    683  => [:北の海底神殿],
    684  => [:妖精の島],
    685  => [:妖精の島],
    686  => [:レミナ（異世界）],
    687  => [:スノウヘブン],
    688  => [:滅びの地],
    689  => [:ヘルゴンドの洞窟, :ポケット魔王城],
    699  => [:ポルノフ],
    700  => [:ポルノフ],
    701  => [:ハピネス村],
    702  => [:ミダス村],
    703  => [:カジノ景品（ポルノフ）, :イリアスポート],
    704  => [:サン・イリア],
    705  => [:サン・イリア],
    706  => [:モンテカルロ],
    707  => [:サバサ],
    708  => [:サルーン, :管理者の塔],
    709  => [:海軍本部],
    710  => [:グランドノア],
    711  => [:グランドノア],
    712  => [:プランセクト村],
    713  => [:グランゴルド],
    714  => [:ゴルドポート],
    715  => [:妖精の島],
    716  => [:レミナ（異世界）],
    717  => [:ヘルゴンドの洞窟],
    718  => [:ポケット魔王城],
    725  => [:イリアスベルク],
    726  => [:ポルノフ],
    727  => [:ハピネス村],
    728  => [:ハピネス村],
    729  => [:ミダス村, :ロストルム山地洞窟],
    730  => [:ナタリアポート],
    731  => [:ナタリアポート],
    732  => [:サン・イリア],
    733  => [:サン・イリア],
    734  => [:サバサ],
    735  => [:サルーン],
    736  => [:グランドノア],
    737  => [:グランドノア],
    738  => [:グランドノア, :ミノタウロスの迷宮],
    739  => [:ヤマタイ村],
    740  => [:グランゴルド],
    741  => [:ゴルドポート],
    742  => [:妖精の島],
    743  => [:妖精の島],
    744  => [:ヤマタイ村],
    745  => [:スノウヘブン],
    746  => [:ポケット魔王城, :魔王城],
    754  => [:イリアスベルク],
    755  => [:ポルノフ],
    756  => [:ミダス村],
    757  => [:ナタリアポート],
    758  => [:サン・イリア],
    759  => [:モンテカルロ],
    760  => [:サルーン],
    761  => [:海軍本部],
    762  => [:グランドノア],
    763  => [:ミノタウロスの迷宮],
    764  => [:プランセクト村],
    765  => [:ゴルドポート],
    766  => [:妖精の島, :魔王城（異世界）],
    767  => [:レミナ（異世界）],
    768  => [:ポケット魔王城],
    774  => [:イリアスベルク],
    775  => [:ポルノフ],
    776  => [:ミダス村, :タルタロス（イリアス大陸東）],
    777  => [:エンリカ],
    778  => [:サン・イリア],
    779  => [:サン・イリア],
    780  => [:グランドール],
    781  => [:魔導の塔],
    782  => [:サルーン],
    783  => [:グランドノア],
    784  => [:グランドノア],
    785  => [:グランゴルド],
    786  => [:ゴルドポート],
    787  => [:妖精の島],
    788  => [:ライラの大滝],
    789  => [:ポケット魔王城],
    790  => [:スノウヘブン],
    796  => [:イリアスベルク],
    797  => [:ポルノフ],
    798  => [:ミダス村],
    799  => [:イリアスポート],
    800  => [:サン・イリア, :南の海底神殿],
    801  => [:サン・イリア],
    802  => [:サバサ],
    803  => [:グランドール],
    804  => [:サルーン],
    805  => [:管理者の塔],
    806  => [:グランドノア],
    807  => [:グランドノア],
    808  => [:プランセクト村],
    809  => [:ゴルドポート],
    810  => [:北の海底神殿],
    811  => [:妖精の島],
    812  => [:妖精の島],
    813  => [:レミナ（異世界）],
    814  => [:スノウヘブン],
    815  => [:ポケット魔王城],
    821  => [:ポルノフ],
    822  => [:ポルノフ],
    823  => [:ハピネス村],
    824  => [:ミダス村],
    825  => [:イリアスポート],
    826  => [:サン・イリア],
    827  => [:サン・イリア],
    828  => [:モンテカルロ],
    829  => [:サルーン],
    830  => [:海軍本部],
    831  => [:グランドノア, :迷宮への洞窟],
    832  => [:ウンディーネの泉],
    833  => [:グランゴルド],
    834  => [:ゴルドポート],
    835  => [:妖精の島],
    836  => [:雪越えの洞窟, :雪越えの洞窟],
    837  => [:ポケット魔王城],
    843  => [:イリアスベルク],
    844  => [:ポルノフ],
    845  => [:ミダス村],
    846  => [:ミダス村],
    847  => [:ナタリアポート],
    848  => [:サン・イリア],
    849  => [:サン・イリア, :求道者の洞窟],
    850  => [:サバサ],
    851  => [:サルーン, :サルーン廃鉱],
    852  => [:グランドノア],
    853  => [:グランドノア],
    854  => [:ヤマタイ村],
    855  => [:プランセクト村],
    856  => [:グランゴルド],
    857  => [:ゴルドポート],
    858  => [:妖精の島],
    859  => [:妖精の島],
    860  => [:妖精の島],
    861  => [:イリアス神殿跡],
    862  => [:ポケット魔王城],
    868  => [:秘宝の洞窟],
    869  => [:ナタリアポート],
    870  => [:サン・イリア, :地下図書館],
    871  => [:サン・イリア],
    872  => [:モンテカルロ],
    873  => [:グランドール],
    874  => [:サファル砂漠遺跡],
    875  => [:海軍本部],
    876  => [:グランドノア, :魔導学園],
    877  => [:プランセクト村],
    878  => [:グランゴルド],
    879  => [:ゴルドポート],
    880  => [:サキュバスの村],
    881  => [:ヤマタイ村],
    882  => [:スノウヘブン],
    883  => [:イリアス神殿跡],
    889  => [:タルタロス（イリアス大陸南）],
    890  => [:エンリカ],
    891  => [:タルタロス（イリアス大陸東）],
    892  => [:サン・イリア],
    893  => [:サン・イリア],
    894  => [:サン・イリア],
    895  => [:モンテカルロ],
    896  => [:サバサ],
    897  => [:サルーン],
    898  => [:グランドール],
    899  => [:タルタロス（サバサ大陸北）],
    900  => [:マールポート],
    901  => [:グランドノア],
    902  => [:グランドノア],
    903  => [:プランセクト村],
    904  => [:グランゴルド],
    905  => [:グランゴルド],
    906  => [:ゴルドポート],
    907  => [:妖精の島],
    908  => [:レミナ（異世界）, :タルタロス（ゴルド大陸西）],
    909  => [:スノウヘブン],
    910  => [:スノウヘブン],
    911  => [:魔王城],
    919  => [:ポルノフ, :ナメクジタワー],
    920  => [:ハピネス村, :地下図書館],
    921  => [:聖山アモス],
    922  => [:サン・イリア, :リリィの館],
    923  => [:グランドール, :魔導学園],
    924  => [:グランドノア, :レド山],
    925  => [:ヤマタイ村, :ライラの大滝],
    926  => [:グランゴルド, :溶岩鉱窟],
    927  => [:ゴルドポート, :妖精の島],
    928  => [:妖精の島, :蓬莱山],
    929  => [:妖精の島, :創世の館],
    930  => [:魔王城],
  }
  # 武器貰える仲間ID配列
  GET_WEAPON_ACTORS = {
    11 => [132],
    14 => [184],
    20 => [73],
    56 => [95],
    94 => [156],
    149 => [113],
    300 => [124,128],
    335 => [71],
    337 => [93],
    341 => [154],
    371 => [141],
    401 => [80],
    476 => [86],
    483 => [150],
    484 => [149],
    514 => [88],
    520 => [143,146],
    560 => [136],
    592 => [79],
    594 => [111],
    596 => [175],
    598 => [147],
    657 => [53],
    670 => [144],
    705 => [151],
    730 => [116],
    802 => [166],
    919 => [57],
  }
end

