﻿// EVENT 4399
Name "65537ページ4"

If(0,25,1)
 221()
 PictureClear(5)
 PictureClear(6)
 ShowMessageFace("",0,0,2,1)
 ShowMessage("・・・・・・・・")
 242(2)
 Wait(120)
 241(bytes(0x04,0x08,0x6f,0x3a,0x0d,0x52,0x50,0x47,0x3a,0x3a,0x42,0x47,0x4d,0x08,0x3a,0x0a,0x40,0x6e,0x61,0x6d,0x65,0x49,0x22,0x0c,0x63,0x61,0x73,0x74,0x6c,0x65,0x36,0x06,0x3a,0x06,0x45,0x54,0x3a,0x0c,0x40,0x76,0x6f,0x6c,0x75,0x6d,0x65,0x69,0x69,0x3a,0x0b,0x40,0x70,0x69,0x74,0x63,0x68,0x69,0x69))
 EndEventProcessing()
 0()
EndIf()
PictureDisplay(5,"80_page65537_st02",0,0,0,0,100,100,255,0)
ShowMessageFace("page65537_fc1",0,0,2,2)
ShowMessage("【コーネリア】")
ShowMessage("私に性欲処理を頼みたいのですか……？")
ShowMessageFace("",0,0,2,3)
ShowMessage("【ルカ】")
ShowMessage("う、うん……お願い……")
ShowMessageFace("page65537_fc1",0,0,2,4)
ShowMessage("【コーネリア】")
ShowMessage("まったく、仕方ありませんね。")
ShowMessage("それでは私の部屋にどうぞ……")
ShowMessageFace("",0,0,2,5)
ShowMessage("こうして僕は、個室へと導かれた――")
221()
PictureDisplay(1,"bg195",0,0,0,0,100,100,255,0)
PictureDisplay(5,"80_page65537_st02",0,0,0,0,100,100,255,0)
222()
241(bytes(0x04,0x08,0x6f,0x3a,0x0d,0x52,0x50,0x47,0x3a,0x3a,0x42,0x47,0x4d,0x08,0x3a,0x0a,0x40,0x6e,0x61,0x6d,0x65,0x49,0x22,0x09,0x65,0x72,0x6f,0x31,0x06,0x3a,0x06,0x45,0x54,0x3a,0x0c,0x40,0x76,0x6f,0x6c,0x75,0x6d,0x65,0x69,0x69,0x3a,0x0b,0x40,0x70,0x69,0x74,0x63,0x68,0x69,0x69))
ShowMessageFace("page65537_fc1",1,0,2,6)
ShowMessage("【コーネリア】")
ShowMessage("それでは……この胸で性処理を行いましょうか。")
ShowMessage("ほら、おちんちんを出しなさい。")
ShowMessageFace("",0,0,2,7)
ShowMessage("【ルカ】")
ShowMessage("う、うん……")
ShowMessageFace("",0,0,2,8)
ShowMessage("僕は言われるがまま、ズボンを脱いで下半身を露出させると――")
245(bytes(0x04,0x08,0x6f,0x3a,0x0d,0x52,0x50,0x47,0x3a,0x3a,0x42,0x47,0x53,0x08,0x3a,0x0a,0x40,0x6e,0x61,0x6d,0x65,0x49,0x22,0x17,0x6d,0x6f,0x6e,0x5f,0x68,0x73,0x65,0x61,0x6e,0x31,0x37,0x5f,0x73,0x69,0x67,0x6f,0x6b,0x69,0x06,0x3a,0x06,0x45,0x54,0x3a,0x0c,0x40,0x76,0x6f,0x6c,0x75,0x6d,0x65,0x69,0x55,0x3a,0x0b,0x40,0x70,0x69,0x74,0x63,0x68,0x69,0x69))
PictureDisplay(5,"ev_page65537_hc1",0,0,0,0,100,100,255,0)
ShowMessageFace("",0,0,2,9)
ShowMessage("ずしっ……と、股間に豊満なおっぱいが乗せられてしまった！")
ShowMessageFace("",0,0,2,10)
ShowMessage("【ルカ】")
ShowMessage("あ、あぁぁっ……！")
ShowMessageFace("",0,0,2,11)
ShowMessage("その重圧感と温もりだけで、僕は声を漏らしてしまう。")
ShowMessage("大きくなった肉棒を、おっぱいが押し潰してくるのだ――")
ShowMessageFace("page65537_fc1",1,0,2,12)
ShowMessage("【コーネリア】")
ShowMessage("ふふっ……どうですか？")
ShowMessage("私の胸は、なかなか心地良いでしょう？")
ShowMessageFace("",0,0,2,13)
ShowMessage("コーネリアは肉棒の位置を調整し、胸の谷間にペニスを挟み込む。")
ShowMessage("僕のモノは、左右からおっぱいでみっちりと圧迫された。")
ShowMessageFace("",0,0,2,14)
ShowMessage("その温もりと柔らかさ、そして弾力――")
ShowMessage("左右から押し潰されるような圧迫感は、極上の快楽を与えてくる。")
ShowMessageFace("",0,0,2,15)
ShowMessage("【ルカ】")
ShowMessage("あ、はぅぅ……あぁぁっ……！")
ShowMessageFace("",0,0,2,16)
ShowMessage("肉棒を胸の谷間に囚われたまま、僕は体を震わせた。")
ShowMessage("相手は動いていないのに、おっぱいの重圧感だけでイってしまいそうだ――")
ShowMessageFace("page65537_fc1",1,0,2,17)
ShowMessage("【コーネリア】")
ShowMessage("ふふっ……挟んだだけで悶えているのですか？")
ShowMessage("まだ、動かしてもいないのですよ。")
ShowMessageFace("",0,0,2,18)
ShowMessage("【ルカ】")
ShowMessage("はぅ……うぅぅぅっ……")
ShowMessageFace("",0,0,2,19)
ShowMessage("快楽に悶える僕を眺め、くすくすと笑うコーネリア。")
ShowMessageFace("",0,0,2,20)
ShowMessage("豊満な乳房は、コーネリアが力を込めていなくてもペニスを圧迫する。")
ShowMessage("柔らかな弾力の中で、むぎゅむぎゅと締められているのだ――")
ShowMessageFace("",0,0,2,21)
ShowMessage("【ルカ】")
ShowMessage("あぅぅぅぅ……！　き、気持ちいいよぉ……！")
ShowMessageFace("page65537_fc1",1,0,2,22)
ShowMessage("【コーネリア】")
ShowMessage("ふふっ、挟まれただけで大喜びですか。")
ShowMessage("まったく、手間のかからないおちんちんですね。")
ShowMessageFace("",0,0,2,23)
ShowMessage("【ルカ】")
ShowMessage("はぅぅぅぅぅぅ……！")
ShowMessageFace("",0,0,2,24)
ShowMessage("乳房に挟まれたまま、僕のモノはどんどん弱っていく。")
ShowMessage("その圧迫感と温もりだけで、みるみる追い詰められているのだ。")
ShowMessageFace("",0,0,2,25)
ShowMessage("コーネリアは性技を使わず、乳房の柔らかな感触だけでも――")
ShowMessage("僕のモノは、すっかり胸の谷間で虫の息になってしまった。")
ShowMessageFace("",0,0,2,26)
ShowMessage("【ルカ】")
ShowMessage("はぅぅ……もう、イっちゃうよぉ……")
ShowMessageFace("page65537_fc1",1,0,2,27)
ShowMessage("【コーネリア】")
ShowMessage("さあ、そのまま果ててしまいなさい。")
ShowMessage("おっぱいの感触だけでイってしまうのも、乙なものでしょう？")
ShowMessageFace("",0,0,2,28)
ShowMessage("【ルカ】")
ShowMessage("あぁぁっ、出ちゃう……！！")
ShowMessageFace("",0,0,2,29)
ShowMessage("僕は腰をびくびくと突き上げ、放出感に身を任せた。")
ShowMessage("柔らかな胸の谷間で、痺れるような快感に包まれる――")
RunCommonEvent(104)
PictureDisplay(5,"ev_page65537_hc2",0,0,0,0,100,100,255,0)
RunCommonEvent(105)
ShowMessageFace("",0,0,2,30)
ShowMessage("びゅるっ、びゅるっ……と、精液が噴き上がった。")
ShowMessage("発射された白濁は、コーネリアの顔に粘り着いてしまう。")
ShowMessageFace("",0,0,2,31)
ShowMessage("【ルカ】")
ShowMessage("はぅぅぅ……")
ShowMessageFace("page65537_fc1",1,0,2,32)
ShowMessage("【コーネリア】")
ShowMessage("あらあら、漏らしてしまいましたか。")
ShowMessage("挟まれているだけでイくなんて、お手軽ですね……")
ShowMessageFace("",0,0,2,33)
ShowMessage("【ルカ】")
ShowMessage("……………………")
ShowMessageFace("",0,0,2,34)
ShowMessage("僕のモノは、まだコーネリアの胸の谷間に預けられていた。")
ShowMessage("射精直後のペニスを、柔らかな乳肉がみっちりと包み込んでいる――")
ShowMessageFace("page65537_fc1",1,0,2,35)
ShowMessage("【コーネリア】")
ShowMessage("それでは、これからパイズリ技で精を搾り取りましょうか。")
ShowMessage("あと十回以上は射精してもらいますよ……")
ShowMessageFace("",0,0,2,36)
ShowMessage("【ルカ】")
ShowMessage("そ、そんなぁ……！")
ShowMessageFace("page65537_fc1",1,0,2,37)
ShowMessage("【コーネリア】")
ShowMessage("ここで根こそぎ出してしまえば……")
ShowMessage("しばらくは、性処理も必要ないでしょう？")
ShowMessageFace("page65537_fc1",1,0,2,38)
ShowMessage("【コーネリア】")
ShowMessage("さあ、いきますよ。")
ShowMessage("私の胸を、白濁で染め上げて下さいね……")
ShowMessageFace("",0,0,2,39)
ShowMessage("【ルカ】")
ShowMessage("だ、だめ……あぁぁぁぁ――！！")
ShowMessageFace("",0,0,2,40)
ShowMessage("コーネリアは両腕を動かし、谷間のペニスを徹底的に責めたててきた。")
ShowMessage("ぎゅうぎゅうと胸を寄せ、柔らかな乳肉で締め上げる。")
ShowMessageFace("",0,0,2,41)
ShowMessage("かと思えばおっぱいを上下に動かし、扱くような刺激を与えてきた。")
ShowMessage("乳房で亀頭を揉み潰すような刺激に、僕は体をよじって悶えてしまう。")
ShowMessageFace("",0,0,2,42)
ShowMessage("【ルカ】")
ShowMessage("あひ……！　あ、あぁぁぁ――！！")
ShowMessageFace("page65537_fc1",1,0,2,43)
ShowMessage("【コーネリア】")
ShowMessage("私のパイズリ技は、結構なものでしょう。")
ShowMessage("さあ、果ててしまいなさい……")
ShowMessageFace("",0,0,2,44)
ShowMessage("【ルカ】")
ShowMessage("ひぁぁ、こんなぁ……あ、出ちゃうよぉ……！！")
ShowMessageFace("",0,0,2,45)
ShowMessage("まるで、ペニスが乳肉で搾られているような感触。")
ShowMessage("その練達した性技を味わいながら、がくがくと腰を震わせ――")
RunCommonEvent(104)
PictureDisplay(5,"ev_page65537_hc3",0,0,0,0,100,100,255,0)
RunCommonEvent(105)
ShowMessageFace("",0,0,2,46)
ShowMessage("そして、びゅるびゅると精液を放出していた。")
ShowMessage("コーネリアの本気のパイズリに、たちまちイかされてしまったのだ。")
ShowMessageFace("",0,0,2,47)
ShowMessage("【ルカ】")
ShowMessage("あ、あぁぁぁ……")
ShowMessageFace("page65537_fc1",1,0,2,48)
ShowMessage("【コーネリア】")
ShowMessage("ふふっ……パイズリで瞬殺でしたね。")
ShowMessage("ちょっと本気のテクニックを使えば、たちまちこれですか。")
ShowMessageFace("page65537_fc1",1,0,2,49)
ShowMessage("【コーネリア】")
ShowMessage("しかし、まだまだ容赦はしませんよ。")
ShowMessage("胸の谷間で、根こそぎ搾り尽くして差し上げましょう……！")
ShowMessageFace("",0,0,2,50)
ShowMessage("【ルカ】")
ShowMessage("ひぁ……あぁぁぁぁぁ――！！")
ShowMessageFace("",0,0,2,51)
ShowMessage("コーネリアは微塵の容赦もなく、ペニスをおっぱいで揉み潰してくる。")
ShowMessage("ぎゅうぎゅうと締め付けては、柔らかな圧迫感を与え――")
ShowMessageFace("",0,0,2,52)
ShowMessage("そして左右交互に乳房を動かし、肉棒をこね回した。")
ShowMessage("練達したパイズリ技に、僕はなすすべもなく翻弄されてしまう。")
ShowMessageFace("",0,0,2,53)
ShowMessage("【ルカ】")
ShowMessage("こんな、あぁぁぁ……！")
ShowMessageFace("page65537_fc1",1,0,2,54)
ShowMessage("【コーネリア】")
ShowMessage("ふふっ、我慢などさせませんよ。")
ShowMessage("さあ、私の胸に精液を捧げなさい……")
ShowMessageFace("",0,0,2,55)
ShowMessage("【ルカ】")
ShowMessage("ひぁ、あぁぁぁぁ――！！")
RunCommonEvent(104)
RunCommonEvent(105)
ShowMessageFace("",0,0,2,56)
ShowMessage("コーネリアのパイズリに屈し、あえなく精液が迸ってしまう。")
ShowMessage("僕は腰をびくびく跳ね上げながら、射精を余儀なくされた。")
ShowMessageFace("",0,0,2,57)
ShowMessage("どれだけ耐えようとしても、我慢する事などできない。")
ShowMessage("僕はこのまま、コーネリアの胸で搾り尽くされるのだ――")
ShowMessageFace("",0,0,2,58)
ShowMessage("【ルカ】")
ShowMessage("あ……うぅぅぅ……")
ShowMessageFace("page65537_fc1",1,0,2,59)
ShowMessage("【コーネリア】")
ShowMessage("休む暇などありませんよ。")
ShowMessage("ほぉら、こうやって元気にしてあげましょう……")
ShowMessageFace("",0,0,2,60)
ShowMessage("コーネリアの胸で、ペニスが揉みくちゃにされる。")
ShowMessage("柔らかな乳肉でこね回され、天国の快楽が与えられる――")
ShowMessageFace("",0,0,2,61)
ShowMessage("【ルカ】")
ShowMessage("だ、だめぇ……あぁぁぁ……！")
RunCommonEvent(104)
RunCommonEvent(105)
ShowMessageFace("page65537_fc1",1,0,2,62)
ShowMessage("【コーネリア】")
ShowMessage("はい、また一回……")
ShowMessage("まだまだ出るでしょう……？")
ShowMessageFace("",0,0,2,63)
ShowMessage("【ルカ】")
ShowMessage("あひ、あぅぅぅぅ……！")
ShowMessageFace("",0,0,2,64)
ShowMessage("精液で汚れたおっぱいに溺れ、ペニスがびくびくと脈打つ。")
ShowMessage("男の器官をこね回されるたび、びゅるびゅると白濁を吐き出してしまう。")
ShowMessageFace("",0,0,2,65)
ShowMessage("腰をガクガクと震わせようと、逃げ場はない。")
ShowMessage("僕のモノは、胸の谷間で搾り尽くされるしかないのだ――")
ShowMessageFace("",0,0,2,66)
ShowMessage("【ルカ】")
ShowMessage("あ、ぁぁぁぁぁぁぁ――！！")
RunCommonEvent(104)
PictureDisplay(5,"ev_page65537_hc4",0,0,0,0,100,100,255,0)
RunCommonEvent(105)
ShowMessageFace("",0,0,2,67)
ShowMessage("そのまま、何度も何度も搾られ続ける。")
ShowMessage("無慈悲に、容赦なく精液が搾り取られ――")
ShowMessageFace("",0,0,2,68)
ShowMessage("そして――")
246(1)
ShowMessageFace("",0,0,2,69)
ShowMessage("【ルカ】")
ShowMessage("ぁ……ぁぁ……")
ShowMessageFace("",0,0,2,70)
ShowMessage("あれから何度もの射精を強制され、僕は虫の息となっていた。")
ShowMessage("コーネリアの上体も、すっかり精液でドロドロだ。")
ShowMessageFace("page65537_fc1",1,0,2,71)
ShowMessage("【コーネリア】")
ShowMessage("ふふっ……散々に搾られた気分はどうですか……？")
ShowMessage("流石にこれで、もう打ち止めのようですね。")
ShowMessageFace("",0,0,2,72)
ShowMessage("【ルカ】")
ShowMessage("あ、あぅぅぅ……")
ShowMessageFace("",0,0,2,73)
ShowMessage("コーネリアの胸で、ペニスがびくびくと脈打つ――")
ShowMessage("が、それは空撃ちで、精液は一滴も出てこなかった。")
ShowMessageFace("page65537_fc1",1,0,2,74)
ShowMessage("【コーネリア】")
ShowMessage("これだけ出せば、しばらく性処理の必要はないでしょう。")
ShowMessage("あなたの精液は、私が管理して差し上げますね。")
ShowMessageFace("page65537_fc1",1,0,2,75)
ShowMessage("【コーネリア】")
ShowMessage("また溜まったら、私のところに来るのですよ。")
ShowMessage("この胸で、搾り尽くしてあげますから……")
ShowMessageFace("",0,0,2,76)
ShowMessage("【ルカ】")
ShowMessage("……………………")
ShowMessageFace("",0,0,2,77)
ShowMessage("精液にまみれたまま笑うコーネリアをぼんやりと見ながら――")
ShowMessage("僕は、意識を失ってしまったのである。")
221()
PictureClear(5)
ShowMessageFace("",0,0,2,78)
ShowMessage("・・・・・・・・")
242(2)
Wait(120)
241(bytes(0x04,0x08,0x6f,0x3a,0x0d,0x52,0x50,0x47,0x3a,0x3a,0x42,0x47,0x4d,0x08,0x3a,0x0a,0x40,0x6e,0x61,0x6d,0x65,0x49,0x22,0x0c,0x63,0x61,0x73,0x74,0x6c,0x65,0x36,0x06,0x3a,0x06,0x45,0x54,0x3a,0x0c,0x40,0x76,0x6f,0x6c,0x75,0x6d,0x65,0x69,0x69,0x3a,0x0b,0x40,0x70,0x69,0x74,0x63,0x68,0x69,0x69))
0()
